{"debug":{"time":0.42,"peak":1.51,"query":2,"cache":0},"code":200,"data":{"data":[{"ROWNUM":"1","ID":"230","TOPIC_CONTENT":"111111","TOPIC_ID":"230","TOPIC_NAME":"11111","STATE":"0","CREATE_USER_ACCOUNT":"admindev","SEND_USER":"{\"agent\":[\"agent_tongchuangkeji\"]}","CREATE_TIME":"2020-01-14 12:43:00","PUSH_TIME":"2020-01-14 12:43:00","agent_num":1,"property_num":0,"hq_num":0,"employee_num":0,"num":1},{"ROWNUM":"2","ID":"229","TOPIC_CONTENT":"5666989","TOPIC_ID":"229","TOPIC_NAME":"1233656","STATE":"0","CREATE_USER_ACCOUNT":"admindev","SEND_USER":"{\"agent\":[\"agent_03\"]}","CREATE_TIME":"2019-12-31 19:00:14","PUSH_TIME":"2019-12-31 19:00:14","agent_num":1,"property_num":0,"hq_num":0,"employee_num":0,"num":1},{"ROWNUM":"3","ID":"228","TOPIC_CONTENT":"1","TOPIC_ID":"228","TOPIC_NAME":"1","STATE":"0","CREATE_USER_ACCOUNT":"admindev","SEND_USER":"{\"employee\":[\"YAC0065\"]}","CREATE_TIME":"2019-12-26 11:24:23","PUSH_TIME":"2019-12-26 12:00:00","agent_num":0,"property_num":0,"hq_num":0,"employee_num":1,"num":1},{"ROWNUM":"4","ID":"227","TOPIC_CONTENT":"yy","TOPIC_ID":"227","TOPIC_NAME":"yy","STATE":"0","CREATE_USER_ACCOUNT":"admindev","SEND_USER":"{\"property\":[\"cell_0001\"]}","CREATE_TIME":"2019-12-23 10:26:11","PUSH_TIME":"2019-12-23 10:26:11","agent_num":0,"property_num":1,"hq_num":0,"employee_num":0,"num":1},{"ROWNUM":"5","ID":"226","TOPIC_CONTENT":"\u6d88\u606f\u6d4b\u8bd5","TOPIC_ID":"226","TOPIC_NAME":"\u6d88\u606f\u6d4b\u8bd5","STATE":"0","CREATE_USER_ACCOUNT":"admindev","SEND_USER":"{\"agent\":[\"agent_qikela\"]}","CREATE_TIME":"2019-12-17 17:03:48","PUSH_TIME":"2019-12-17 17:03:48","agent_num":1,"property_num":0,"hq_num":0,"employee_num":0,"num":1},{"ROWNUM":"6","ID":"225","TOPIC_CONTENT":"\u6d4b\u8bd5\u9ed8\u8ba4\u63a8\u9001\u65f6\u95f4","TOPIC_ID":"225","TOPIC_NAME":"\u6d4b\u8bd5","STATE":"0","CREATE_USER_ACCOUNT":"admindev","SEND_USER":"{\"property\":[\"cell_lymeihaojiayuan\"]}","CREATE_TIME":"2019-12-17 16:11:23","PUSH_TIME":"2019-12-17 16:11:23","agent_num":0,"property_num":1,"hq_num":0,"employee_num":0,"num":1},{"ROWNUM":"7","ID":"224","TOPIC_CONTENT":"\u9ed8\u8ba4\u63a8\u9001","TOPIC_ID":"224","TOPIC_NAME":"\u6d4b\u8bd5","STATE":"0","CREATE_USER_ACCOUNT":"admindev","SEND_USER":"{\"property\":[\"cell_testapi\"],\"hq\":[\"nbTester\",\"nbDevTester\"]}","CREATE_TIME":"2019-12-09 16:25:25","PUSH_TIME":"2019-12-09 16:25:25","agent_num":0,"property_num":1,"hq_num":1,"employee_num":0,"num":3},{"ROWNUM":"8","ID":"223","TOPIC_CONTENT":"\u6d4b\u8bd5\uff0c\u9009\u62e9\u4e86\u63a8\u9001\u5bf9\u8c61","TOPIC_ID":"223","TOPIC_NAME":"\u6d4b\u8bd5012","STATE":"0","CREATE_USER_ACCOUNT":"admindev","SEND_USER":"{\"agent\":[\"agent_tianlishi\"]}","CREATE_TIME":"2019-12-09 16:17:47","PUSH_TIME":"2019-12-10 12:00:00","agent_num":1,"property_num":0,"hq_num":0,"employee_num":0,"num":1},{"ROWNUM":"9","ID":"222","TOPIC_CONTENT":"\u6d4b\u8bd5\uff0c\u9ed8\u8ba4\u63a8\u9001","TOPIC_ID":"222","TOPIC_NAME":"\u6d4b\u8bd5\u4e0d\u9009\u63a8\u9001\u5bf9\u8c61","STATE":"0","CREATE_USER_ACCOUNT":"admindev","SEND_USER":"{\"agent\":[\"agent_456\"]}","CREATE_TIME":"2019-12-09 16:15:47","PUSH_TIME":"2019-12-10 11:00:00","agent_num":1,"property_num":0,"hq_num":0,"employee_num":0,"num":1},{"ROWNUM":"10","ID":"221","TOPIC_CONTENT":"   \u6d4b\u8bd5\u6d88\u606f ","TOPIC_ID":"221","TOPIC_NAME":"\u6d4b\u8bd5","STATE":"0","CREATE_USER_ACCOUNT":"admindev","SEND_USER":"{\"agent\":[\"agent_456\"]}","CREATE_TIME":"2019-12-09 16:14:20","PUSH_TIME":"2019-12-09 17:00:00","agent_num":1,"property_num":0,"hq_num":0,"employee_num":0,"num":1}],"pageInfo":{"total":183,"pageTotal":19,"currentPage":1,"nextPage":2,"size":10}}}