{"debug":{"time":0.45,"peak":1.22,"query":2,"cache":0},"code":200,"data":{"data":[{"USER_ID":"100000078302","CHARGE_ORDER_ID":"CO201906031902596c41def21fb4237a","MOBILE_PHONE":"           ","CARD_NO":"          ","CELL_NAME":"\u9526\u7ee3\u82b1\u56ed\u56db\u671f","CHARGING_PILE_NAME":"202652","CHARGE_MINUTE":"6086:52:00","USER_PREDICT_MINUTE":"05:00:00","ELECTRICITY_METER_NAME":"\u9526\u7ee3\u82b1\u56ed\u56db\u671f2\u53f7\u7535\u8868","CHARGING_PILE_SN":"359369083093431","PORT_ID":"1","CHARGE_START_TIME":"2019-06-03 19:02:59","ORDER_TYPE":"4","CHARGE_STATE":"1","AREA":"\u56db\u5ddd\u7701\u5185\u6c5f\u5e02\u4e1c\u5174\u533a","AVG_ELECTRICITY":"0","CHARGE_STATE_DESC":"\u5145\u7535","ORDER_TYPE_DESC":"\u65f6\u957f\u5145"},{"USER_ID":"100000048449","CHARGE_ORDER_ID":"CO20190603190258f99000d44d642af8","MOBILE_PHONE":"15060121896","CARD_NO":"          ","CELL_NAME":"\u6d77\u5ce1\u4f20\u5a92\u6e2f","CHARGING_PILE_NAME":"101583","CHARGE_MINUTE":"6086:52:00","USER_PREDICT_MINUTE":null,"ELECTRICITY_METER_NAME":"\u6d77\u5ce1\u4f20\u5a92\u6e2f6\u53f7\u697c2\u53f7\u7535\u8868","CHARGING_PILE_SN":"359369082661311","PORT_ID":"1","CHARGE_START_TIME":"2019-06-03 19:02:58","ORDER_TYPE":"1","CHARGE_STATE":"1","AREA":"\u798f\u5efa\u7701\u798f\u5dde\u5e02\u95fd\u4faf\u53bf","AVG_ELECTRICITY":"0","CHARGE_STATE_DESC":"\u5145\u7535","ORDER_TYPE_DESC":"\u667a\u80fd\u5145"},{"USER_ID":"100000093792","CHARGE_ORDER_ID":"CO2019060319025731c495281f34f28b","MOBILE_PHONE":"           ","CARD_NO":"          ","CELL_NAME":"\u5bcc\u4e3d\u534e\u57ce\u56db\u671f","CHARGING_PILE_NAME":"103381","CHARGE_MINUTE":"6086:52:00","USER_PREDICT_MINUTE":"01:00:00","ELECTRICITY_METER_NAME":"\u5bcc\u4e3d\u534e\u57ce\u56db\u671f57\u680b\u8f66\u68da\u540e3\u53f7\u7535\u8868","CHARGING_PILE_SN":"359369082676004","PORT_ID":"2","CHARGE_START_TIME":"2019-06-03 19:02:57","ORDER_TYPE":"4","CHARGE_STATE":"1","AREA":"\u6cb3\u5357\u7701\u4fe1\u9633\u5e02\u6d49\u6cb3\u533a","AVG_ELECTRICITY":"0","CHARGE_STATE_DESC":"\u5145\u7535","ORDER_TYPE_DESC":"\u65f6\u957f\u5145"},{"USER_ID":"100000056848","CHARGE_ORDER_ID":"CO201906031902548519f0d912f497c9","MOBILE_PHONE":"15109808351","CARD_NO":"          ","CELL_NAME":"\u91d1\u534e\u82d1AB\u680b\uff08DL\uff09","CHARGING_PILE_NAME":"6","CHARGE_MINUTE":"6086:52:00","USER_PREDICT_MINUTE":"06:00:00","ELECTRICITY_METER_NAME":"\u91d1\u534e\u82d1AB\u680b1\u53f7\u7535\u8868","CHARGING_PILE_SN":"359369082027778","PORT_ID":"2","CHARGE_START_TIME":"2019-06-03 19:02:54","ORDER_TYPE":"4","CHARGE_STATE":"1","AREA":"\u6d77\u5357\u7701\u6d77\u53e3\u5e02\u79c0\u82f1\u533a","AVG_ELECTRICITY":"0","CHARGE_STATE_DESC":"\u5145\u7535","ORDER_TYPE_DESC":"\u65f6\u957f\u5145"},{"USER_ID":"100000044557","CHARGE_ORDER_ID":"CO20190603190251a4a63c9985849c8b","MOBILE_PHONE":"13034919262","CARD_NO":"          ","CELL_NAME":"\u91d1\u534e\u82d1AB\u680b\uff08DL\uff09","CHARGING_PILE_NAME":"23","CHARGE_MINUTE":"6086:52:00","USER_PREDICT_MINUTE":null,"ELECTRICITY_METER_NAME":"\u91d1\u534e\u82d1AB\u680b1\u53f7\u7535\u8868","CHARGING_PILE_SN":"359369082213196","PORT_ID":"1","CHARGE_START_TIME":"2019-06-03 19:02:51","ORDER_TYPE":"1","CHARGE_STATE":"1","AREA":"\u6d77\u5357\u7701\u6d77\u53e3\u5e02\u79c0\u82f1\u533a","AVG_ELECTRICITY":"0","CHARGE_STATE_DESC":"\u5145\u7535","ORDER_TYPE_DESC":"\u667a\u80fd\u5145"},{"USER_ID":"100000061528","CHARGE_ORDER_ID":"CO201906031902479219065b8fb43efb","MOBILE_PHONE":"15877014300","CARD_NO":"          ","CELL_NAME":"\u7fe0\u56ed\u96c5\u7b51\uff08JM\uff09","CHARGING_PILE_NAME":"106899","CHARGE_MINUTE":"6086:52:00","USER_PREDICT_MINUTE":"10:00:00","ELECTRICITY_METER_NAME":"\u7fe0\u56ed\u96c5\u7b51A5\u697c2\u53f7\u7535\u8868","CHARGING_PILE_SN":"359369082541653","PORT_ID":"2","CHARGE_START_TIME":"2019-06-03 19:02:47","ORDER_TYPE":"4","CHARGE_STATE":"1","AREA":"\u5e7f\u897f\u58ee\u65cf\u81ea\u6cbb\u533a\u6842\u6797\u5e02\u4e34\u6842\u53bf","AVG_ELECTRICITY":"0","CHARGE_STATE_DESC":"\u5145\u7535","ORDER_TYPE_DESC":"\u65f6\u957f\u5145"},{"USER_ID":"100000045309","CHARGE_ORDER_ID":"CO201906031902463fa0acb227e4ae58","MOBILE_PHONE":"13880859975","CARD_NO":"          ","CELL_NAME":"\u6587\u9526\u4f73\u82d1(DL)","CHARGING_PILE_NAME":"\u6587\u9526\u4f73\u82d1","CHARGE_MINUTE":"6086:52:00","USER_PREDICT_MINUTE":null,"ELECTRICITY_METER_NAME":"\u6587\u9526\u4f73\u82d19\u53f710\u53f7\u697c\u540e5\u53f7\u7535\u8868","CHARGING_PILE_SN":"359369082031978","PORT_ID":"2","CHARGE_START_TIME":"2019-06-03 19:02:46","ORDER_TYPE":"1","CHARGE_STATE":"1","AREA":"\u56db\u5ddd\u7701\u6210\u90fd\u5e02\u909b\u5d03\u5e02","AVG_ELECTRICITY":"0","CHARGE_STATE_DESC":"\u5145\u7535","ORDER_TYPE_DESC":"\u667a\u80fd\u5145"},{"USER_ID":"100000063442","CHARGE_ORDER_ID":"CO201906031902463a61da841d940f6b","MOBILE_PHONE":"19859119003","CARD_NO":"          ","CELL_NAME":"\u4fdd\u5229\u9999\u69df","CHARGING_PILE_NAME":"104272","CHARGE_MINUTE":"6086:52:00","USER_PREDICT_MINUTE":"04:00:00","ELECTRICITY_METER_NAME":"\u4fdd\u5229\u9999\u69df39\u53f7\u697c2\u53f7\u7535\u8868","CHARGING_PILE_SN":"359369082594116","PORT_ID":"2","CHARGE_START_TIME":"2019-06-03 19:02:46","ORDER_TYPE":"4","CHARGE_STATE":"1","AREA":"\u798f\u5efa\u7701\u798f\u5dde\u5e02\u664b\u5b89\u533a","AVG_ELECTRICITY":"0","CHARGE_STATE_DESC":"\u5145\u7535","ORDER_TYPE_DESC":"\u65f6\u957f\u5145"},{"USER_ID":"100000068630","CHARGE_ORDER_ID":"CO20190603190234448200bc0df42249","MOBILE_PHONE":"           ","CARD_NO":"          ","CELL_NAME":"\u6d77\u53e3\u8363\u9759\u5927\u53a6\uff08JM\uff09","CHARGING_PILE_NAME":"200877","CHARGE_MINUTE":"6086:52:00","USER_PREDICT_MINUTE":"08:00:00","ELECTRICITY_METER_NAME":"\u6d77\u53e3\u8363\u9759\u5927\u53a61\u53f7\u7535\u8868","CHARGING_PILE_SN":"359369083195699","PORT_ID":"1","CHARGE_START_TIME":"2019-06-03 19:02:34","ORDER_TYPE":"4","CHARGE_STATE":"1","AREA":"\u6d77\u5357\u7701\u6d77\u53e3\u5e02\u743c\u5c71\u533a","AVG_ELECTRICITY":"0","CHARGE_STATE_DESC":"\u5145\u7535","ORDER_TYPE_DESC":"\u65f6\u957f\u5145"},{"USER_ID":"100000079975","CHARGE_ORDER_ID":"CO2019060319022023f4fea8c4e4aa6a","MOBILE_PHONE":"           ","CARD_NO":"          ","CELL_NAME":"\u56ed\u57ce10\u680b","CHARGING_PILE_NAME":"201050","CHARGE_MINUTE":"6086:52:00","USER_PREDICT_MINUTE":"10:00:00","ELECTRICITY_METER_NAME":"\u56ed\u57ce10\u680b\u5730\u4e0b\u5ba4\u8f66\u68da\u5185\u7535\u68af\u95e8\u53e3\u914d\u7535\u5ba4\u65c11\u53f7\u7535\u8868","CHARGING_PILE_SN":"359369083211371","PORT_ID":"1","CHARGE_START_TIME":"2019-06-03 19:02:20","ORDER_TYPE":"4","CHARGE_STATE":"1","AREA":"\u4e91\u5357\u7701\u6606\u660e\u5e02\u897f\u5c71\u533a","AVG_ELECTRICITY":"0","CHARGE_STATE_DESC":"\u5145\u7535","ORDER_TYPE_DESC":"\u65f6\u957f\u5145"},{"USER_ID":"100000043965","CHARGE_ORDER_ID":"CO201906031902194700895529246c6a","MOBILE_PHONE":"15617799725","CARD_NO":"          ","CELL_NAME":"\u5b8f\u6c5f\u701a\u82d1\u4e00\u671f\uff08DL\uff09","CHARGING_PILE_NAME":"308","CHARGE_MINUTE":"6086:52:00","USER_PREDICT_MINUTE":"03:00:00","ELECTRICITY_METER_NAME":"\u5b8f\u6c5f\u701a\u82d114\u53f7\u697c8\u53f7\u7535\u8868","CHARGING_PILE_SN":"359369081975274","PORT_ID":"2","CHARGE_START_TIME":"2019-06-03 19:02:19","ORDER_TYPE":"4","CHARGE_STATE":"1","AREA":"\u6cb3\u5357\u7701\u90d1\u5dde\u5e02\u4e2d\u539f\u533a","AVG_ELECTRICITY":"0","CHARGE_STATE_DESC":"\u5145\u7535","ORDER_TYPE_DESC":"\u65f6\u957f\u5145"},{"USER_ID":"100000089192","CHARGE_ORDER_ID":"CO20190603190204f17f26502f5441c8","MOBILE_PHONE":"           ","CARD_NO":"          ","CELL_NAME":"\u65f6\u4ee3\u6625\u6811\u91ccA B\u533a\uff08JM\uff09","CHARGING_PILE_NAME":"103806","CHARGE_MINUTE":"6086:52:00","USER_PREDICT_MINUTE":"06:00:00","ELECTRICITY_METER_NAME":"\u65f6\u4ee3\u6625\u6811\u91ccB\u533a1\u53f7\u7535\u8868","CHARGING_PILE_SN":"359369082667714","PORT_ID":"1","CHARGE_START_TIME":"2019-06-03 19:02:04","ORDER_TYPE":"4","CHARGE_STATE":"1","AREA":"\u5e7f\u4e1c\u7701\u5e7f\u5dde\u5e02\u9ec4\u57d4\u533a","AVG_ELECTRICITY":"0","CHARGE_STATE_DESC":"\u5145\u7535","ORDER_TYPE_DESC":"\u65f6\u957f\u5145"},{"USER_ID":"100000084380","CHARGE_ORDER_ID":"CO201906031902025c5e549d0a342b2a","MOBILE_PHONE":"           ","CARD_NO":"          ","CELL_NAME":"\u6ecf\u4e1c\u5c1a\u57ce","CHARGING_PILE_NAME":"103199","CHARGE_MINUTE":"6086:52:00","USER_PREDICT_MINUTE":null,"ELECTRICITY_METER_NAME":"\u6ecf\u4e1c\u5c1a\u57ce\u4e8c\u671f9\u53f7\u697c3\u53f7\u7535\u8868","CHARGING_PILE_SN":"359369082839354","PORT_ID":"1","CHARGE_START_TIME":"2019-06-03 19:02:02","ORDER_TYPE":"1","CHARGE_STATE":"1","AREA":"\u6cb3\u5317\u7701\u8861\u6c34\u5e02\u6843\u57ce\u533a","AVG_ELECTRICITY":"0","CHARGE_STATE_DESC":"\u5145\u7535","ORDER_TYPE_DESC":"\u667a\u80fd\u5145"},{"USER_ID":"100000063811","CHARGE_ORDER_ID":"CO20190603190200c7f3d54c357436aa","MOBILE_PHONE":"           ","CARD_NO":"          ","CELL_NAME":"\u6587\u9526\u4f73\u82d1(DL)","CHARGING_PILE_NAME":"\u6587\u9526\u4f73\u82d1","CHARGE_MINUTE":"6086:52:00","USER_PREDICT_MINUTE":"03:00:00","ELECTRICITY_METER_NAME":"\u6587\u9526\u4f73\u82d19\u53f710\u53f7\u697c\u540e5\u53f7\u7535\u8868","CHARGING_PILE_SN":"359369082032489","PORT_ID":"1","CHARGE_START_TIME":"2019-06-03 19:02:00","ORDER_TYPE":"4","CHARGE_STATE":"1","AREA":"\u56db\u5ddd\u7701\u6210\u90fd\u5e02\u909b\u5d03\u5e02","AVG_ELECTRICITY":"0","CHARGE_STATE_DESC":"\u5145\u7535","ORDER_TYPE_DESC":"\u65f6\u957f\u5145"},{"USER_ID":"100000072837","CHARGE_ORDER_ID":"CO20190603190152431123468b74acca","MOBILE_PHONE":"           ","CARD_NO":"          ","CELL_NAME":"\u7ae0\u6c5f\u5357\u82d1\uff08JM\uff09","CHARGING_PILE_NAME":"107222","CHARGE_MINUTE":"6086:53:00","USER_PREDICT_MINUTE":"01:00:00","ELECTRICITY_METER_NAME":"\u7ae0\u6c5f\u5357\u82d18\u53f7\u7535\u8868","CHARGING_PILE_SN":"359369082611829","PORT_ID":"1","CHARGE_START_TIME":"2019-06-03 19:01:52","ORDER_TYPE":"4","CHARGE_STATE":"1","AREA":"\u6c5f\u897f\u7701\u8d63\u5dde\u5e02\u7ae0\u8d21\u533a","AVG_ELECTRICITY":"0","CHARGE_STATE_DESC":"\u5145\u7535","ORDER_TYPE_DESC":"\u65f6\u957f\u5145"},{"USER_ID":"100000069062","CHARGE_ORDER_ID":"CO2019060319015169da0aebbd84ee78","MOBILE_PHONE":"           ","CARD_NO":"          ","CELL_NAME":"\u91d1\u4e4b\u5c9b\uff08DL\uff09","CHARGING_PILE_NAME":"106343","CHARGE_MINUTE":"6086:53:00","USER_PREDICT_MINUTE":"10:00:00","ELECTRICITY_METER_NAME":"\u91d1\u4e4b\u5c9b2\u53f7\u7535\u8868","CHARGING_PILE_SN":"359369082577285","PORT_ID":"1","CHARGE_START_TIME":"2019-06-03 19:01:51","ORDER_TYPE":"4","CHARGE_STATE":"1","AREA":"\u5e7f\u897f\u58ee\u65cf\u81ea\u6cbb\u533a\u5357\u5b81\u5e02\u5174\u5b81\u533a","AVG_ELECTRICITY":"0","CHARGE_STATE_DESC":"\u5145\u7535","ORDER_TYPE_DESC":"\u65f6\u957f\u5145"},{"USER_ID":"100000066193","CHARGE_ORDER_ID":"CO201906031901443160ac8074a4f49b","MOBILE_PHONE":"           ","CARD_NO":"          ","CELL_NAME":"\u5b8f\u6c5f\u701a\u82d1\u4e00\u671f\uff08DL\uff09","CHARGING_PILE_NAME":"235","CHARGE_MINUTE":"6086:53:00","USER_PREDICT_MINUTE":null,"ELECTRICITY_METER_NAME":"\u5b8f\u6c5f\u701a\u82d114\u53f7\u697c7\u53f7\u7535\u8868","CHARGING_PILE_SN":"359369082034881","PORT_ID":"1","CHARGE_START_TIME":"2019-06-03 19:01:44","ORDER_TYPE":"1","CHARGE_STATE":"1","AREA":"\u6cb3\u5357\u7701\u90d1\u5dde\u5e02\u4e2d\u539f\u533a","AVG_ELECTRICITY":"0","CHARGE_STATE_DESC":"\u5145\u7535","ORDER_TYPE_DESC":"\u667a\u80fd\u5145"},{"USER_ID":"100000073423","CHARGE_ORDER_ID":"CO201906031901426eba9de045542418","MOBILE_PHONE":"           ","CARD_NO":"          ","CELL_NAME":"\u5609\u4e50\u516c\u5bd3\uff08XS\uff09","CHARGING_PILE_NAME":"202349","CHARGE_MINUTE":"6086:53:00","USER_PREDICT_MINUTE":"10:00:00","ELECTRICITY_METER_NAME":"\u5609\u4e50\u516c\u5bd31\u53f7\u7535\u8868","CHARGING_PILE_SN":"359369083140745","PORT_ID":"1","CHARGE_START_TIME":"2019-06-03 19:01:42","ORDER_TYPE":"4","CHARGE_STATE":"1","AREA":"\u4e91\u5357\u7701\u6606\u660e\u5e02\u76d8\u9f99\u533a","AVG_ELECTRICITY":"0","CHARGE_STATE_DESC":"\u5145\u7535","ORDER_TYPE_DESC":"\u65f6\u957f\u5145"},{"USER_ID":"100000052544","CHARGE_ORDER_ID":"CO20190603190136e869ec168e84af38","MOBILE_PHONE":"13541283646","CARD_NO":"0527865809","CELL_NAME":"\u9f99\u7965\u4f73\u82d1\u4e09\u671f\uff08JM\uff09","CHARGING_PILE_NAME":"109668","CHARGE_MINUTE":"6086:53:00","USER_PREDICT_MINUTE":null,"ELECTRICITY_METER_NAME":"\u9f99\u7965\u4f73\u82d1\u4e09\u671f8\u53f7\u697c\u5730\u5e932\u53f7\u7535\u8868","CHARGING_PILE_SN":"359369082544103","PORT_ID":"1","CHARGE_START_TIME":"2019-06-03 19:01:36","ORDER_TYPE":"1","CHARGE_STATE":"1","AREA":"\u56db\u5ddd\u7701\u6210\u90fd\u5e02\u53cc\u6d41\u53bf","AVG_ELECTRICITY":"0","CHARGE_STATE_DESC":"\u5145\u7535","ORDER_TYPE_DESC":"\u667a\u80fd\u5145"},{"USER_ID":"100000042652","CHARGE_ORDER_ID":"CO2019060319013602a701ac68541a99","MOBILE_PHONE":"18084685425","CARD_NO":"          ","CELL_NAME":"\u73af\u5c9b\u5bb6\u56ed\uff08DL\uff09","CHARGING_PILE_NAME":"12","CHARGE_MINUTE":"6086:53:00","USER_PREDICT_MINUTE":null,"ELECTRICITY_METER_NAME":"\u73af\u5c9b\u5bb6\u56ed1\u53f7\u8868","CHARGING_PILE_SN":"359369082028164","PORT_ID":"2","CHARGE_START_TIME":"2019-06-03 19:01:36","ORDER_TYPE":"1","CHARGE_STATE":"1","AREA":"\u6d77\u5357\u7701\u6d77\u53e3\u5e02\u743c\u5c71\u533a","AVG_ELECTRICITY":"0","CHARGE_STATE_DESC":"\u5145\u7535","ORDER_TYPE_DESC":"\u667a\u80fd\u5145"}],"pageInfo":{"total":1227,"pageTotal":62,"currentPage":1,"nextPage":2,"size":20}}}
