{"debug":{"time":0.32,"peak":1.52,"query":2,"cache":0},"code":200,"data":{"data":[{"ROWNUM":"1","ID":"229","TYPE":"1","REFUND_ORDER_NO":"RF20200111210125350","USER_ID":"100000094025","CREATE_TIME":"2020-01-11 21:40:23.633","ORDER_NO":"YACSZ2020010318042474981453","REFUND_FEE":".01","PACKAGE":"0","PAY_WAY":"3","OPERATION_ACCOUNT":"admindev","STATE":"1"},{"ROWNUM":"2","ID":"228","TYPE":"1","REFUND_ORDER_NO":"RF20200111093007","USER_ID":"100000114290","CREATE_TIME":"2020-01-11 21:30:05.907","ORDER_NO":"202001110929121110070877","REFUND_FEE":"2.00","PACKAGE":"0","PAY_WAY":"0","OPERATION_ACCOUNT":"admindev","STATE":"1"},{"ROWNUM":"3","ID":"227","TYPE":"1","REFUND_ORDER_NO":"RF20200110015906","USER_ID":"100000094025","CREATE_TIME":"2020-01-10 13:59:04.440","ORDER_NO":"OSXHS2019121615074178486801","REFUND_FEE":".01","PACKAGE":"0","PAY_WAY":"0","OPERATION_ACCOUNT":"admindev","STATE":"1"},{"ROWNUM":"4","ID":"226","TYPE":"1","REFUND_ORDER_NO":"RF20191230111218633","USER_ID":"100000094025","CREATE_TIME":"2019-12-30 11:33:18.777","ORDER_NO":"YACASZ1000000018310630","REFUND_FEE":".01","PACKAGE":"0","PAY_WAY":"2","OPERATION_ACCOUNT":"admindev","STATE":"1"},{"ROWNUM":"5","ID":"225","TYPE":"1","REFUND_ORDER_NO":"RF20191230101215983","USER_ID":"100000094025","CREATE_TIME":"2019-12-30 10:11:19.933","ORDER_NO":"OSXHS2019121119260253286574","REFUND_FEE":".01","PACKAGE":"0","PAY_WAY":"1","OPERATION_ACCOUNT":"admindev","STATE":"1"},{"ROWNUM":"6","ID":"224","TYPE":"1","REFUND_ORDER_NO":"RF20191230091257319","USER_ID":"100000094025","CREATE_TIME":"2019-12-30 09:55:57.380","ORDER_NO":"OSXHS2019121119260253286574","REFUND_FEE":".01","PACKAGE":"0","PAY_WAY":"1","OPERATION_ACCOUNT":"admindev","STATE":"1"},{"ROWNUM":"7","ID":"223","TYPE":"1","REFUND_ORDER_NO":"RF20191230091228809","USER_ID":"100000094025","CREATE_TIME":"2019-12-30 09:55:28.870","ORDER_NO":"OSXHS2019121119260253286574","REFUND_FEE":".20","PACKAGE":"0","PAY_WAY":"1","OPERATION_ACCOUNT":"admindev","STATE":"1"},{"ROWNUM":"8","ID":"222","TYPE":"1","REFUND_ORDER_NO":"RF20191230091215489","USER_ID":"100000094025","CREATE_TIME":"2019-12-30 09:55:15.547","ORDER_NO":"OSXHS2019121119260253286574","REFUND_FEE":".10","PACKAGE":"0","PAY_WAY":"1","OPERATION_ACCOUNT":"admindev","STATE":"1"},{"ROWNUM":"9","ID":"221","TYPE":"1","REFUND_ORDER_NO":"RF20191230091206560","USER_ID":"100000094025","CREATE_TIME":"2019-12-30 09:55:06.613","ORDER_NO":"OSXHS2019121119260253286574","REFUND_FEE":".10","PACKAGE":"0","PAY_WAY":"1","OPERATION_ACCOUNT":"admindev","STATE":"1"},{"ROWNUM":"10","ID":"220","TYPE":"1","REFUND_ORDER_NO":"RF20191230091256772","USER_ID":"100000094025","CREATE_TIME":"2019-12-30 09:54:56.827","ORDER_NO":"OSXHS2019121119260253286574","REFUND_FEE":".20","PACKAGE":"0","PAY_WAY":"1","OPERATION_ACCOUNT":"admindev","STATE":"1"},{"ROWNUM":"11","ID":"219","TYPE":"1","REFUND_ORDER_NO":"RF20191230091245976","USER_ID":"100000094025","CREATE_TIME":"2019-12-30 09:54:46.033","ORDER_NO":"OSXHS2019121119260253286574","REFUND_FEE":".10","PACKAGE":"0","PAY_WAY":"1","OPERATION_ACCOUNT":"admindev","STATE":"1"},{"ROWNUM":"12","ID":"218","TYPE":"1","REFUND_ORDER_NO":"RF20191230091222229","USER_ID":"100000094025","CREATE_TIME":"2019-12-30 09:52:22.290","ORDER_NO":"OSXHS2019121119260253286574","REFUND_FEE":".20","PACKAGE":"0","PAY_WAY":"1","OPERATION_ACCOUNT":"admindev","STATE":"1"},{"ROWNUM":"13","ID":"217","TYPE":"1","REFUND_ORDER_NO":"RF20191230091230309","USER_ID":"100000094025","CREATE_TIME":"2019-12-30 09:50:30.360","ORDER_NO":"OSXHS2019121119260253286574","REFUND_FEE":".01","PACKAGE":"0","PAY_WAY":"1","OPERATION_ACCOUNT":"admindev","STATE":"1"},{"ROWNUM":"14","ID":"216","TYPE":"1","REFUND_ORDER_NO":"RF20191230091212319","USER_ID":"100000094025","CREATE_TIME":"2019-12-30 09:49:12.370","ORDER_NO":"OSXHS2019121119260253286574","REFUND_FEE":".01","PACKAGE":"0","PAY_WAY":"1","OPERATION_ACCOUNT":"admindev","STATE":"1"},{"ROWNUM":"15","ID":"215","TYPE":"1","REFUND_ORDER_NO":"RF20191230091240128","USER_ID":"100000094025","CREATE_TIME":"2019-12-30 09:48:40.730","ORDER_NO":"OSXHS2019121119260253286574","REFUND_FEE":".01","PACKAGE":"0","PAY_WAY":"1","OPERATION_ACCOUNT":"admindev","STATE":"1"},{"ROWNUM":"16","ID":"214","TYPE":"1","REFUND_ORDER_NO":"RF20191227201242731","USER_ID":"100000114145","CREATE_TIME":"2019-12-27 20:56:41.477","ORDER_NO":"YACASZ10000016754491530A","REFUND_FEE":"1.00","PACKAGE":"0","PAY_WAY":"0","OPERATION_ACCOUNT":"admindev","STATE":"1"},{"ROWNUM":"17","ID":"213","TYPE":"1","REFUND_ORDER_NO":"RF20191227201224650","USER_ID":"100000094133","CREATE_TIME":"2019-12-27 20:55:23.393","ORDER_NO":"YACSZ10000005215900690A","REFUND_FEE":"9.00","PACKAGE":"0","PAY_WAY":"0","OPERATION_ACCOUNT":"admindev","STATE":"1"},{"ROWNUM":"18","ID":"212","TYPE":"1","REFUND_ORDER_NO":"RF20191226191204607","USER_ID":"100000094133","CREATE_TIME":"2019-12-26 19:01:02.990","ORDER_NO":"201912231455171356427289","REFUND_FEE":"2.00","PACKAGE":"0","PAY_WAY":"0","OPERATION_ACCOUNT":"admindev","STATE":"1"},{"ROWNUM":"19","ID":"211","TYPE":"1","REFUND_ORDER_NO":"RF2019122618120710","USER_ID":"100000094133","CREATE_TIME":"2019-12-26 18:59:05.393","ORDER_NO":"201912231455171356427289","REFUND_FEE":"10.00","PACKAGE":"0","PAY_WAY":"0","OPERATION_ACCOUNT":"admindev","STATE":"1"},{"ROWNUM":"20","ID":"210","TYPE":"1","REFUND_ORDER_NO":"RF20191216151251749","USER_ID":"100000094025","CREATE_TIME":"2019-12-16 15:09:49.117","ORDER_NO":"OSXHS2019121615074178486801","REFUND_FEE":".50","PACKAGE":"0","PAY_WAY":"1","OPERATION_ACCOUNT":"admindev","STATE":"1"}],"pageInfo":{"total":221,"pageTotal":12,"currentPage":1,"nextPage":2,"size":20}}}