{"debug":{"time":0.37,"peak":1.21,"query":2,"cache":0},"code":200,"data":{"data":[{"ROWNUM":"1","ID":"217","ELECTRICITY_METER_SN":"400011081600159","CELL_ID":"4503050013","CELL_NAME":"\u57ce\u4e1c\u540d\u56ed","LAST_UPDATE":"2020-01-11 23:12:12.700","ELECTRICITY_METER_NAME":"\u57ce\u4e1c\u540d\u56ed","PILE_NUM":"1","ELECTRICITY_METER_MODEL":"test","DEVICE_STATE":"1","ELECTRICITY_METER_STATE":"1","IS_DAY_UP":"0","REMARK":"","LAST_DEGREE":"1000.0000","CREATE_TIME":"2020-01-11 23:12:02.910"},{"ROWNUM":"2","ID":"2037","ELECTRICITY_METER_SN":"1000000000","CELL_ID":"4503050013","CELL_NAME":"\u57ce\u4e1c\u540d\u56ed","LAST_UPDATE":null,"ELECTRICITY_METER_NAME":"12","PILE_NUM":"1","ELECTRICITY_METER_MODEL":"1","DEVICE_STATE":"1","ELECTRICITY_METER_STATE":"1","IS_DAY_UP":"0","REMARK":"","LAST_DEGREE":".0000","CREATE_TIME":"2020-01-11 23:06:02.657"},{"ROWNUM":"3","ID":"80","ELECTRICITY_METER_SN":"869416030256786","CELL_ID":"3501040005","CELL_NAME":"\u6613\u5b89\u5145\u6d4b\u8bd5\u5c0f\u533a","LAST_UPDATE":null,"ELECTRICITY_METER_NAME":"Leon\u5f00\u53d1\u6d4b\u8bd5","PILE_NUM":"1","ELECTRICITY_METER_MODEL":"\u5f00\u53d1\u6d4b\u8bd5","DEVICE_STATE":"1","ELECTRICITY_METER_STATE":"1","IS_DAY_UP":"0","REMARK":"","LAST_DEGREE":".0000","CREATE_TIME":"2020-01-11 23:05:39.450"},{"ROWNUM":"4","ID":"71","ELECTRICITY_METER_SN":"400011081600037","CELL_ID":"1101050002","CELL_NAME":"\u5f69\u8679\u57ce","LAST_UPDATE":null,"ELECTRICITY_METER_NAME":"\u7ea2\u661f\u82b1\u56ed1\u53f7\u7535\u8868","PILE_NUM":"1","ELECTRICITY_METER_MODEL":"test","DEVICE_STATE":"1","ELECTRICITY_METER_STATE":"1","IS_DAY_UP":"0","REMARK":"","LAST_DEGREE":".0000","CREATE_TIME":"2020-01-11 23:03:08.927"},{"ROWNUM":"5","ID":"79","ELECTRICITY_METER_SN":"869416030256372","CELL_ID":"4503050013","CELL_NAME":"\u57ce\u4e1c\u540d\u56ed","LAST_UPDATE":null,"ELECTRICITY_METER_NAME":"Leon\u5f00\u53d1\u6d4b\u8bd5","PILE_NUM":"1","ELECTRICITY_METER_MODEL":"\u5f00\u53d1\u6d4b\u8bd5","DEVICE_STATE":"1","ELECTRICITY_METER_STATE":"1","IS_DAY_UP":"0","REMARK":"","LAST_DEGREE":".0000","CREATE_TIME":"2020-01-11 23:00:07.280"},{"ROWNUM":"6","ID":"83","ELECTRICITY_METER_SN":"400011081600046","CELL_ID":"4503050013","CELL_NAME":"\u57ce\u4e1c\u540d\u56ed","LAST_UPDATE":null,"ELECTRICITY_METER_NAME":"\u534e\u4ea83\u53f7\u7535\u8868","PILE_NUM":"1","ELECTRICITY_METER_MODEL":"test","DEVICE_STATE":"1","ELECTRICITY_METER_STATE":"1","IS_DAY_UP":"0","REMARK":"","LAST_DEGREE":".0000","CREATE_TIME":"2020-01-11 22:57:07.230"},{"ROWNUM":"7","ID":"84","ELECTRICITY_METER_SN":"400011081600047","CELL_ID":"4503050013","CELL_NAME":"\u57ce\u4e1c\u540d\u56ed","LAST_UPDATE":null,"ELECTRICITY_METER_NAME":"\u534e\u4ea82\u53f7\u7535\u8868","PILE_NUM":"1","ELECTRICITY_METER_MODEL":"test","DEVICE_STATE":"1","ELECTRICITY_METER_STATE":"1","IS_DAY_UP":"0","REMARK":"","LAST_DEGREE":".0000","CREATE_TIME":"2020-01-11 22:55:52.640"},{"ROWNUM":"8","ID":"2327","ELECTRICITY_METER_SN":"4545445454455016","CELL_ID":"4503030004","CELL_NAME":"\u53e0\u5f69\u5609\u56ed","LAST_UPDATE":"2020-01-11 22:04:45.520","ELECTRICITY_METER_NAME":"\u53e0\u5f69\u5609\u56ed5\u53f7\u7535\u8868","PILE_NUM":"1","ELECTRICITY_METER_MODEL":"Fictitious_Meter","DEVICE_STATE":"1","ELECTRICITY_METER_STATE":"1","IS_DAY_UP":"1","REMARK":"","LAST_DEGREE":"1000.0000","CREATE_TIME":"2020-01-11 22:04:34.303"},{"ROWNUM":"9","ID":"2326","ELECTRICITY_METER_SN":"4545445454455015","CELL_ID":"4503030004","CELL_NAME":"\u53e0\u5f69\u5609\u56ed","LAST_UPDATE":null,"ELECTRICITY_METER_NAME":"\u53e0\u5f69\u5609\u56ed4\u53f7\u7535\u8868","PILE_NUM":"1","ELECTRICITY_METER_MODEL":"Fictitious_Meter","DEVICE_STATE":"1","ELECTRICITY_METER_STATE":"1","IS_DAY_UP":"1","REMARK":"","LAST_DEGREE":".0000","CREATE_TIME":"2020-01-11 22:04:01.467"},{"ROWNUM":"10","ID":"2325","ELECTRICITY_METER_SN":"4545445454455011","CELL_ID":"4503030004","CELL_NAME":"\u53e0\u5f69\u5609\u56ed","LAST_UPDATE":null,"ELECTRICITY_METER_NAME":"\u53e0\u5f69\u5609\u56ed3\u53f7\u7535\u8868","PILE_NUM":"1","ELECTRICITY_METER_MODEL":"Fictitious_Meter","DEVICE_STATE":"1","ELECTRICITY_METER_STATE":"1","IS_DAY_UP":"1","REMARK":null,"LAST_DEGREE":".0000","CREATE_TIME":"2020-01-10 10:13:12.777"},{"ROWNUM":"11","ID":"2324","ELECTRICITY_METER_SN":"4545445454455010","CELL_ID":"4503030004","CELL_NAME":"\u53e0\u5f69\u5609\u56ed","LAST_UPDATE":"2020-01-10 10:13:57.830","ELECTRICITY_METER_NAME":"\u53e0\u5f69\u5609\u56ed2\u53f7\u7535\u8868","PILE_NUM":"1","ELECTRICITY_METER_MODEL":"Fictitious_Meter","DEVICE_STATE":"1","ELECTRICITY_METER_STATE":"1","IS_DAY_UP":"1","REMARK":null,"LAST_DEGREE":"1000.0000","CREATE_TIME":"2020-01-10 10:13:12.760"},{"ROWNUM":"12","ID":"2323","ELECTRICITY_METER_SN":"4545445454455009","CELL_ID":"4503030004","CELL_NAME":"\u53e0\u5f69\u5609\u56ed","LAST_UPDATE":null,"ELECTRICITY_METER_NAME":"\u53e0\u5f69\u5609\u56ed1\u53f7\u7535\u8868","PILE_NUM":"1","ELECTRICITY_METER_MODEL":"Fictitious_Meter","DEVICE_STATE":"1","ELECTRICITY_METER_STATE":"1","IS_DAY_UP":"1","REMARK":null,"LAST_DEGREE":".0000","CREATE_TIME":"2020-01-10 10:13:12.750"},{"ROWNUM":"13","ID":"25","ELECTRICITY_METER_SN":"860111041399175","CELL_ID":"2302020001","CELL_NAME":"\u5b9c\u5c45\u5bb6\u56ed\uff08DL\uff09","LAST_UPDATE":null,"ELECTRICITY_METER_NAME":"Leon\u5f00\u53d1\u6d4b\u8bd5","PILE_NUM":"1","ELECTRICITY_METER_MODEL":"\u5f00\u53d1\u6d4b\u8bd5","DEVICE_STATE":"1","ELECTRICITY_METER_STATE":"1","IS_DAY_UP":"0","REMARK":"","LAST_DEGREE":".0000","CREATE_TIME":"2020-01-09 16:35:28.830"},{"ROWNUM":"14","ID":"78","ELECTRICITY_METER_SN":"869416030256687","CELL_ID":"1301080002","CELL_NAME":"\u82f9\u679c\u57ce\uff08DL\uff09","LAST_UPDATE":null,"ELECTRICITY_METER_NAME":"Leon\u5f00\u53d1\u6d4b\u8bd5","PILE_NUM":"1","ELECTRICITY_METER_MODEL":"\u5f00\u53d1\u6d4b\u8bd5","DEVICE_STATE":"1","ELECTRICITY_METER_STATE":"1","IS_DAY_UP":"0","REMARK":"","LAST_DEGREE":".0000","CREATE_TIME":"2020-01-09 16:33:09.530"},{"ROWNUM":"15","ID":"54","ELECTRICITY_METER_SN":"869416030192825","CELL_ID":"1201040001","CELL_NAME":"\u51e4\u4eea\u56ed","LAST_UPDATE":null,"ELECTRICITY_METER_NAME":"eee","PILE_NUM":"1","ELECTRICITY_METER_MODEL":"ChargeModule_YAC03_YAC03","DEVICE_STATE":"1","ELECTRICITY_METER_STATE":"3","IS_DAY_UP":"1","REMARK":"","LAST_DEGREE":".0000","CREATE_TIME":"2020-01-09 16:32:15.330"},{"ROWNUM":"16","ID":"2034","ELECTRICITY_METER_SN":"11","CELL_ID":"1201040001","CELL_NAME":"\u51e4\u4eea\u56ed","LAST_UPDATE":"2019-11-19 00:00:02.787","ELECTRICITY_METER_NAME":"11","PILE_NUM":"1","ELECTRICITY_METER_MODEL":"111","DEVICE_STATE":"1","ELECTRICITY_METER_STATE":"1","IS_DAY_UP":"0","REMARK":"","LAST_DEGREE":"1.1000","CREATE_TIME":"2020-01-09 15:35:19.913"},{"ROWNUM":"17","ID":"2322","ELECTRICITY_METER_SN":"4545445454455008","CELL_ID":"5001180003","CELL_NAME":"\u601d\u601d\u5c0f\u533a","LAST_UPDATE":null,"ELECTRICITY_METER_NAME":"\u601d\u601d\u5c0f\u533a3\u53f7\u7535\u8868","PILE_NUM":"1","ELECTRICITY_METER_MODEL":"Fictitious_Meter","DEVICE_STATE":"1","ELECTRICITY_METER_STATE":"1","IS_DAY_UP":"1","REMARK":null,"LAST_DEGREE":".0000","CREATE_TIME":"2020-01-09 11:28:18.610"},{"ROWNUM":"18","ID":"2321","ELECTRICITY_METER_SN":"4545445454455007","CELL_ID":"5001180003","CELL_NAME":"\u601d\u601d\u5c0f\u533a","LAST_UPDATE":null,"ELECTRICITY_METER_NAME":"\u601d\u601d\u5c0f\u533a2\u53f7\u7535\u8868","PILE_NUM":"1","ELECTRICITY_METER_MODEL":"Fictitious_Meter","DEVICE_STATE":"1","ELECTRICITY_METER_STATE":"1","IS_DAY_UP":"1","REMARK":null,"LAST_DEGREE":".0000","CREATE_TIME":"2020-01-09 11:28:18.577"},{"ROWNUM":"19","ID":"2320","ELECTRICITY_METER_SN":"4545445454455006","CELL_ID":"5001180003","CELL_NAME":"\u601d\u601d\u5c0f\u533a","LAST_UPDATE":null,"ELECTRICITY_METER_NAME":"\u601d\u601d\u5c0f\u533a1\u53f7\u7535\u8868","PILE_NUM":"1","ELECTRICITY_METER_MODEL":"Fictitious_Meter","DEVICE_STATE":"1","ELECTRICITY_METER_STATE":"1","IS_DAY_UP":"1","REMARK":null,"LAST_DEGREE":".0000","CREATE_TIME":"2020-01-09 11:28:18.537"},{"ROWNUM":"20","ID":"2319","ELECTRICITY_METER_SN":"4545445454455005","CELL_ID":"5001180004","CELL_NAME":"\u9ed1\u73ab\u7470\u9662","LAST_UPDATE":null,"ELECTRICITY_METER_NAME":"\u9ed1\u73ab\u7470\u96623\u53f7\u7535\u8868","PILE_NUM":"1","ELECTRICITY_METER_MODEL":"Fictitious_Meter","DEVICE_STATE":"1","ELECTRICITY_METER_STATE":"1","IS_DAY_UP":"1","REMARK":null,"LAST_DEGREE":".0000","CREATE_TIME":"2020-01-09 11:28:18.490"}],"pageInfo":{"total":1887,"pageTotal":95,"currentPage":1,"nextPage":2,"size":20}}}

