{"debug":{"time":0.4,"peak":1.18,"query":2,"cache":0},"code":200,"data":{"data":[{"rownum":"1","CHARGING_PILE_SN":"1234567888899","CHARGING_PILE_NAME":"tr"},{"rownum":"2","CHARGING_PILE_SN":"12531532451245","CHARGING_PILE_NAME":""},{"rownum":"3","CHARGING_PILE_SN":"111111111112222","CHARGING_PILE_NAME":null},{"rownum":"4","CHARGING_PILE_SN":"121111111111111","CHARGING_PILE_NAME":""},{"rownum":"5","CHARGING_PILE_SN":"123456789999999","CHARGING_PILE_NAME":""},{"rownum":"6","CHARGING_PILE_SN":"179797979797883","CHARGING_PILE_NAME":null},{"rownum":"7","CHARGING_PILE_SN":"201019062900127","CHARGING_PILE_NAME":"201019062900127"},{"rownum":"8","CHARGING_PILE_SN":"359369000005310","CHARGING_PILE_NAME":null},{"rownum":"9","CHARGING_PILE_SN":"359369000005328","CHARGING_PILE_NAME":null},{"rownum":"10","CHARGING_PILE_SN":"359369000005377","CHARGING_PILE_NAME":null},{"rownum":"11","CHARGING_PILE_SN":"359369000005427","CHARGING_PILE_NAME":null},{"rownum":"12","CHARGING_PILE_SN":"359369000005641","CHARGING_PILE_NAME":null},{"rownum":"13","CHARGING_PILE_SN":"359369000005724","CHARGING_PILE_NAME":null},{"rownum":"14","CHARGING_PILE_SN":"359369000005765","CHARGING_PILE_NAME":null},{"rownum":"15","CHARGING_PILE_SN":"359369000006177","CHARGING_PILE_NAME":null},{"rownum":"16","CHARGING_PILE_SN":"359369000006946","CHARGING_PILE_NAME":null},{"rownum":"17","CHARGING_PILE_SN":"359369000006987","CHARGING_PILE_NAME":null},{"rownum":"18","CHARGING_PILE_SN":"359369000007316","CHARGING_PILE_NAME":null},{"rownum":"19","CHARGING_PILE_SN":"359369000008140","CHARGING_PILE_NAME":null},{"rownum":"20","CHARGING_PILE_SN":"359369000008249","CHARGING_PILE_NAME":null}],"pageInfo":{"total":25144,"pageTotal":1258,"currentPage":1,"nextPage":2,"size":20}}}