{"debug":{"time":1.64,"peak":1.43,"query":13,"cache":9},"code":200,"data":{"data":[{"ROWNUM":"1","ID":"890165","CELL_ID":"5001180003","CELL_NAME":"\u601d\u601d\u5c0f\u533a","ELECTRICITY_METER_SN":"123","CHARGING_PILE_SN":"179797979797882","PORT_ID":"0","ORDER_NUM":0,"TOTAL_MONEY":0,"TOTAL_MINUTE":0,"TOTAL_USER":0,"ARPU_MONEY":0,"PORT_STATE":0,"DEVICE_STATE":0},{"ROWNUM":"2","ID":"890158","CELL_ID":"1401090003","CELL_NAME":"\u82b1\u90fd\u76db\u666f","ELECTRICITY_METER_SN":"372169789656562","CHARGING_PILE_SN":"372169789656562","PORT_ID":"1","ORDER_NUM":0,"TOTAL_MONEY":0,"TOTAL_MINUTE":0,"TOTAL_USER":0,"ARPU_MONEY":0,"PORT_STATE":"1","DEVICE_STATE":"2"},{"ROWNUM":"3","ID":"890157","CELL_ID":"1401090003","CELL_NAME":"\u82b1\u90fd\u76db\u666f","ELECTRICITY_METER_SN":"372169789656562","CHARGING_PILE_SN":"372169789656562","PORT_ID":"0","ORDER_NUM":0,"TOTAL_MONEY":0,"TOTAL_MINUTE":0,"TOTAL_USER":0,"ARPU_MONEY":0,"PORT_STATE":0,"DEVICE_STATE":0},{"ROWNUM":"4","ID":"890149","CELL_ID":"1401090003","CELL_NAME":"\u82b1\u90fd\u76db\u666f","ELECTRICITY_METER_SN":"985412587457853","CHARGING_PILE_SN":"985412587457853","PORT_ID":"1","ORDER_NUM":0,"TOTAL_MONEY":0,"TOTAL_MINUTE":0,"TOTAL_USER":0,"ARPU_MONEY":0,"PORT_STATE":"1","DEVICE_STATE":"2"},{"ROWNUM":"5","ID":"890148","CELL_ID":"1401090003","CELL_NAME":"\u82b1\u90fd\u76db\u666f","ELECTRICITY_METER_SN":"985412587457853","CHARGING_PILE_SN":"985412587457853","PORT_ID":"0","ORDER_NUM":0,"TOTAL_MONEY":0,"TOTAL_MINUTE":0,"TOTAL_USER":0,"ARPU_MONEY":0,"PORT_STATE":0,"DEVICE_STATE":0},{"ROWNUM":"6","ID":"890145","CELL_ID":"1401090003","CELL_NAME":"\u82b1\u90fd\u76db\u666f","ELECTRICITY_METER_SN":"789789789789789","CHARGING_PILE_SN":"789789789789789","PORT_ID":"1","ORDER_NUM":0,"TOTAL_MONEY":0,"TOTAL_MINUTE":0,"TOTAL_USER":0,"ARPU_MONEY":0,"PORT_STATE":"1","DEVICE_STATE":"2"},{"ROWNUM":"7","ID":"890144","CELL_ID":"1401090003","CELL_NAME":"\u82b1\u90fd\u76db\u666f","ELECTRICITY_METER_SN":"789789789789789","CHARGING_PILE_SN":"789789789789789","PORT_ID":"0","ORDER_NUM":0,"TOTAL_MONEY":0,"TOTAL_MINUTE":0,"TOTAL_USER":0,"ARPU_MONEY":0,"PORT_STATE":0,"DEVICE_STATE":0},{"ROWNUM":"8","ID":"890139","CELL_ID":"1401090003","CELL_NAME":"\u82b1\u90fd\u76db\u666f","ELECTRICITY_METER_SN":"741478525896369","CHARGING_PILE_SN":"741478525896369","PORT_ID":"1","ORDER_NUM":0,"TOTAL_MONEY":0,"TOTAL_MINUTE":0,"TOTAL_USER":0,"ARPU_MONEY":0,"PORT_STATE":"1","DEVICE_STATE":"2"},{"ROWNUM":"9","ID":"890138","CELL_ID":"1401090003","CELL_NAME":"\u82b1\u90fd\u76db\u666f","ELECTRICITY_METER_SN":"741478525896369","CHARGING_PILE_SN":"741478525896369","PORT_ID":"0","ORDER_NUM":0,"TOTAL_MONEY":0,"TOTAL_MINUTE":0,"TOTAL_USER":0,"ARPU_MONEY":0,"PORT_STATE":0,"DEVICE_STATE":0},{"ROWNUM":"10","ID":"890137","CELL_ID":"1401090003","CELL_NAME":"\u82b1\u90fd\u76db\u666f","ELECTRICITY_METER_SN":"785412547896541","CHARGING_PILE_SN":"785412547896541","PORT_ID":"1","ORDER_NUM":0,"TOTAL_MONEY":0,"TOTAL_MINUTE":0,"TOTAL_USER":0,"ARPU_MONEY":0,"PORT_STATE":"1","DEVICE_STATE":"2"},{"ROWNUM":"11","ID":"890136","CELL_ID":"1401090003","CELL_NAME":"\u82b1\u90fd\u76db\u666f","ELECTRICITY_METER_SN":"785412547896541","CHARGING_PILE_SN":"785412547896541","PORT_ID":"0","ORDER_NUM":0,"TOTAL_MONEY":0,"TOTAL_MINUTE":0,"TOTAL_USER":0,"ARPU_MONEY":0,"PORT_STATE":0,"DEVICE_STATE":0},{"ROWNUM":"12","ID":"890131","CELL_ID":"1401090008","CELL_NAME":"\u90c1\u91d1\u9999","ELECTRICITY_METER_SN":"201912231107564","CHARGING_PILE_SN":"201912231107564","PORT_ID":"1","ORDER_NUM":0,"TOTAL_MONEY":0,"TOTAL_MINUTE":0,"TOTAL_USER":0,"ARPU_MONEY":0,"PORT_STATE":"1","DEVICE_STATE":"2"},{"ROWNUM":"13","ID":"890130","CELL_ID":"1401090008","CELL_NAME":"\u90c1\u91d1\u9999","ELECTRICITY_METER_SN":"201912231107564","CHARGING_PILE_SN":"201912231107564","PORT_ID":"0","ORDER_NUM":0,"TOTAL_MONEY":0,"TOTAL_MINUTE":0,"TOTAL_USER":0,"ARPU_MONEY":0,"PORT_STATE":0,"DEVICE_STATE":0},{"ROWNUM":"14","ID":"890129","CELL_ID":"1401090007","CELL_NAME":"\u957f\u6cb3\u6e7e","ELECTRICITY_METER_SN":"201912231106546","CHARGING_PILE_SN":"201912231106546","PORT_ID":"1","ORDER_NUM":0,"TOTAL_MONEY":0,"TOTAL_MINUTE":0,"TOTAL_USER":0,"ARPU_MONEY":0,"PORT_STATE":"1","DEVICE_STATE":"2"},{"ROWNUM":"15","ID":"890128","CELL_ID":"1401090007","CELL_NAME":"\u957f\u6cb3\u6e7e","ELECTRICITY_METER_SN":"201912231106546","CHARGING_PILE_SN":"201912231106546","PORT_ID":"0","ORDER_NUM":0,"TOTAL_MONEY":0,"TOTAL_MINUTE":0,"TOTAL_USER":0,"ARPU_MONEY":0,"PORT_STATE":0,"DEVICE_STATE":0},{"ROWNUM":"16","ID":"890122","CELL_ID":"1401090008","CELL_NAME":"\u90c1\u91d1\u9999","ELECTRICITY_METER_SN":"201912231107213","CHARGING_PILE_SN":"201912231107213","PORT_ID":"1","ORDER_NUM":0,"TOTAL_MONEY":0,"TOTAL_MINUTE":0,"TOTAL_USER":0,"ARPU_MONEY":0,"PORT_STATE":"1","DEVICE_STATE":"2"},{"ROWNUM":"17","ID":"890121","CELL_ID":"1401090008","CELL_NAME":"\u90c1\u91d1\u9999","ELECTRICITY_METER_SN":"201912231107213","CHARGING_PILE_SN":"201912231107213","PORT_ID":"0","ORDER_NUM":0,"TOTAL_MONEY":0,"TOTAL_MINUTE":0,"TOTAL_USER":0,"ARPU_MONEY":0,"PORT_STATE":0,"DEVICE_STATE":0},{"ROWNUM":"18","ID":"890120","CELL_ID":"1401090007","CELL_NAME":"\u957f\u6cb3\u6e7e","ELECTRICITY_METER_SN":"201912231106231","CHARGING_PILE_SN":"201912231106231","PORT_ID":"1","ORDER_NUM":0,"TOTAL_MONEY":0,"TOTAL_MINUTE":0,"TOTAL_USER":0,"ARPU_MONEY":0,"PORT_STATE":"1","DEVICE_STATE":"2"},{"ROWNUM":"19","ID":"890119","CELL_ID":"1401090007","CELL_NAME":"\u957f\u6cb3\u6e7e","ELECTRICITY_METER_SN":"201912231106231","CHARGING_PILE_SN":"201912231106231","PORT_ID":"0","ORDER_NUM":0,"TOTAL_MONEY":0,"TOTAL_MINUTE":0,"TOTAL_USER":0,"ARPU_MONEY":0,"PORT_STATE":0,"DEVICE_STATE":0},{"ROWNUM":"20","ID":"890113","CELL_ID":"1401090008","CELL_NAME":"\u90c1\u91d1\u9999","ELECTRICITY_METER_SN":"862980040538185","CHARGING_PILE_SN":"862980040538185","PORT_ID":"1","ORDER_NUM":0,"TOTAL_MONEY":0,"TOTAL_MINUTE":0,"TOTAL_USER":0,"ARPU_MONEY":0,"PORT_STATE":"1","DEVICE_STATE":"2"}],"pageInfo":{"total":24707,"pageTotal":1236,"currentPage":1,"nextPage":2,"size":20}}}
