{"debug":{"time":0.51,"peak":1.51,"query":2,"cache":0},"code":200,"data":{"data":[{"ROWNUM":"1","ALERT_TIME":"2020-01-03 22:01:59.880","DEVICE_TYPE":"1","DEVICE_SN":"798798789798000","CELL_ID":null,"SITE_ID":null,"SITE_NAME":null,"CELL_NAME":null,"ALERT_STATUS":"0","ALERT_STATE":"0"},{"ROWNUM":"2","ALERT_TIME":"2020-01-03 22:01:59.853","DEVICE_TYPE":"1","DEVICE_SN":"879797979797951","CELL_ID":null,"SITE_ID":null,"SITE_NAME":null,"CELL_NAME":null,"ALERT_STATUS":"0","ALERT_STATE":"0"},{"ROWNUM":"3","ALERT_TIME":"2020-01-03 17:51:55.207","DEVICE_TYPE":"1","DEVICE_SN":"362458913063285","CELL_ID":null,"SITE_ID":null,"SITE_NAME":null,"CELL_NAME":null,"ALERT_STATUS":"0","ALERT_STATE":"0"},{"ROWNUM":"4","ALERT_TIME":"2020-01-03 17:51:55.180","DEVICE_TYPE":"1","DEVICE_SN":"362458913063216","CELL_ID":null,"SITE_ID":null,"SITE_NAME":null,"CELL_NAME":null,"ALERT_STATUS":"0","ALERT_STATE":"0"},{"ROWNUM":"5","ALERT_TIME":"2020-01-03 15:21:33.060","DEVICE_TYPE":"1","DEVICE_SN":"398798789798789","CELL_ID":null,"SITE_ID":null,"SITE_NAME":null,"CELL_NAME":null,"ALERT_STATUS":"0","ALERT_STATE":"0"},{"ROWNUM":"6","ALERT_TIME":"2020-01-03 15:21:33.027","DEVICE_TYPE":"1","DEVICE_SN":"379797979797889","CELL_ID":null,"SITE_ID":null,"SITE_NAME":null,"CELL_NAME":null,"ALERT_STATUS":"0","ALERT_STATE":"0"},{"ROWNUM":"7","ALERT_TIME":"2019-12-27 21:56:14.470","DEVICE_TYPE":"1","DEVICE_SN":"456297995623575","CELL_ID":null,"SITE_ID":null,"SITE_NAME":null,"CELL_NAME":null,"ALERT_STATUS":"0","ALERT_STATE":"0"},{"ROWNUM":"8","ALERT_TIME":"2019-12-27 21:56:14.450","DEVICE_TYPE":"1","DEVICE_SN":"879797995623575","CELL_ID":null,"SITE_ID":null,"SITE_NAME":null,"CELL_NAME":null,"ALERT_STATUS":"0","ALERT_STATE":"0"},{"ROWNUM":"9","ALERT_TIME":"2019-12-27 21:30:55.737","DEVICE_TYPE":"1","DEVICE_SN":"789541254125632","CELL_ID":null,"SITE_ID":null,"SITE_NAME":null,"CELL_NAME":null,"ALERT_STATUS":"0","ALERT_STATE":"0"},{"ROWNUM":"10","ALERT_TIME":"2019-12-27 21:27:11.480","DEVICE_TYPE":"1","DEVICE_SN":"179797979797883","CELL_ID":null,"SITE_ID":null,"SITE_NAME":null,"CELL_NAME":null,"ALERT_STATUS":"0","ALERT_STATE":"0"},{"ROWNUM":"11","ALERT_TIME":"2019-12-27 21:26:31.873","DEVICE_TYPE":"1","DEVICE_SN":"179797979797882","CELL_ID":"5001180003","SITE_ID":"500118000320200106045152                          ","SITE_NAME":"\u601d\u601d\u5c0f\u533a\u7535\u52a8\u8f66\u5145\u7535\u7ad9","CELL_NAME":"\u601d\u601d\u5c0f\u533a","ALERT_STATUS":"0","ALERT_STATE":"0"},{"ROWNUM":"12","ALERT_TIME":"2019-12-27 20:42:23.647","DEVICE_TYPE":"1","DEVICE_SN":"666666111211211","CELL_ID":null,"SITE_ID":null,"SITE_NAME":null,"CELL_NAME":null,"ALERT_STATUS":"0","ALERT_STATE":"0"},{"ROWNUM":"13","ALERT_TIME":"2019-12-27 20:41:42.173","DEVICE_TYPE":"1","DEVICE_SN":"787897897411111","CELL_ID":null,"SITE_ID":null,"SITE_NAME":null,"CELL_NAME":null,"ALERT_STATUS":"0","ALERT_STATE":"0"},{"ROWNUM":"14","ALERT_TIME":"2019-12-27 19:18:39.193","DEVICE_TYPE":"1","DEVICE_SN":"798798789798789","CELL_ID":null,"SITE_ID":null,"SITE_NAME":null,"CELL_NAME":null,"ALERT_STATUS":"0","ALERT_STATE":"0"},{"ROWNUM":"15","ALERT_TIME":"2019-12-27 19:18:20.107","DEVICE_TYPE":"1","DEVICE_SN":"879797979797889","CELL_ID":null,"SITE_ID":null,"SITE_NAME":null,"CELL_NAME":null,"ALERT_STATUS":"0","ALERT_STATE":"0"},{"ROWNUM":"16","ALERT_TIME":"2019-12-27 15:58:23.287","DEVICE_TYPE":"1","DEVICE_SN":"372169789656562","CELL_ID":"1401090003","SITE_ID":"140109000320191230103718344                       ","SITE_NAME":"\u82b1\u90fd\u76db\u666f\u5c0f\u533a\u7535\u52a8\u8f66\u5145\u7535\u7ad9","CELL_NAME":"\u82b1\u90fd\u76db\u666f","ALERT_STATUS":"0","ALERT_STATE":"0"},{"ROWNUM":"17","ALERT_TIME":"2019-12-27 15:58:23.257","DEVICE_TYPE":"1","DEVICE_SN":"372169723665651","CELL_ID":"1403020003","SITE_ID":null,"SITE_NAME":null,"CELL_NAME":null,"ALERT_STATUS":"0","ALERT_STATE":"0"},{"ROWNUM":"18","ALERT_TIME":"2019-12-27 15:58:23.210","DEVICE_TYPE":"1","DEVICE_SN":"372169789656565","CELL_ID":"1403110002","SITE_ID":null,"SITE_NAME":null,"CELL_NAME":null,"ALERT_STATUS":"0","ALERT_STATE":"0"},{"ROWNUM":"19","ALERT_TIME":"2019-12-27 15:11:36.230","DEVICE_TYPE":"1","DEVICE_SN":"123654125896541","CELL_ID":"1403020003","SITE_ID":null,"SITE_NAME":null,"CELL_NAME":null,"ALERT_STATUS":"0","ALERT_STATE":"0"},{"ROWNUM":"20","ALERT_TIME":"2019-12-27 11:53:41.567","DEVICE_TYPE":"1","DEVICE_SN":"985412587457853","CELL_ID":"1401090003","SITE_ID":"140109000320191230103718344                       ","SITE_NAME":"\u82b1\u90fd\u76db\u666f\u5c0f\u533a\u7535\u52a8\u8f66\u5145\u7535\u7ad9","CELL_NAME":"\u82b1\u90fd\u76db\u666f","ALERT_STATUS":"0","ALERT_STATE":"0"}],"pageInfo":{"total":24585,"pageTotal":1230,"currentPage":1,"nextPage":2,"size":20}}}
