{"debug":{"time":0.47,"peak":1.52,"query":2,"cache":0},"code":200,"data":{"data":[{"ROWNUM":"1","ALERT_TIME":"2019-10-17 17:23:11","DEVICE_TYPE":"2","DEVICE_SN":"111","CELL_ID":"1201040001","SITE_ID":"1201040001ED34A17907                              ","SITE_NAME":"\u6d77\u5cb8\u57ce\u6613\u5b89\u7269\u8054\u603b\u90e8\u5145\u7535\u7ad9","CELL_NAME":"\u51e4\u4eea\u56ed","ALERT_STATUS":"0","ALERT_STATE":"0"},{"ROWNUM":"2","ALERT_TIME":"2019-10-17 17:23:11","DEVICE_TYPE":"2","DEVICE_SN":"111","CELL_ID":"1201040001","SITE_ID":"120104000120191213195857597                       ","SITE_NAME":"\u6d77\u5cb8\u57ce\u6613\u5b89\u7269\u8054\u603b\u90e8\u5c0f\u533a\u7535\u52a8\u8f66\u5145\u7535\u7ad9","CELL_NAME":"\u51e4\u4eea\u56ed","ALERT_STATUS":"0","ALERT_STATE":"0"},{"ROWNUM":"3","ALERT_TIME":"2019-09-23 16:20:09","DEVICE_TYPE":"2","DEVICE_SN":"123","CELL_ID":"5001180003","SITE_ID":"500118000320200106045152                          ","SITE_NAME":"\u601d\u601d\u5c0f\u533a\u7535\u52a8\u8f66\u5145\u7535\u7ad9","CELL_NAME":"\u601d\u601d\u5c0f\u533a","ALERT_STATUS":"0","ALERT_STATE":"0"},{"ROWNUM":"4","ALERT_TIME":"2019-09-16 14:23:32","DEVICE_TYPE":"2","DEVICE_SN":"4000110816001","CELL_ID":null,"SITE_ID":null,"SITE_NAME":null,"CELL_NAME":null,"ALERT_STATUS":"0","ALERT_STATE":"0"},{"ROWNUM":"5","ALERT_TIME":"2019-06-03 18:46:47","DEVICE_TYPE":"1","DEVICE_SN":"359369082486453","CELL_ID":"5101830003","SITE_ID":"51018300038DD94B6814                              ","SITE_NAME":"\u745e\u4e91\u58f9\u53f7\u6751\u5e84\u4e09\u671f\u5145\u7535\u7ad9","CELL_NAME":"\u745e\u4e91\u58f9\u53f7\u6751\u5e84\u4e09\u671f(DL)","ALERT_STATUS":"1","ALERT_STATE":"0"},{"ROWNUM":"6","ALERT_TIME":"2019-06-03 18:41:07","DEVICE_TYPE":"1","DEVICE_SN":"359369082992047","CELL_ID":"1408210001","SITE_ID":"140821000135510FDA9C                              ","SITE_NAME":"\u5170\u6c40\u96c5\u5c45\u5145\u7535\u7ad9","CELL_NAME":"\u5170\u6c40\u96c5\u5c45\uff08DL\uff09","ALERT_STATUS":"1","ALERT_STATE":"0"},{"ROWNUM":"7","ALERT_TIME":"2019-06-03 18:35:08","DEVICE_TYPE":"1","DEVICE_SN":"359369082919982","CELL_ID":"5101830007","SITE_ID":"5101830007CBD6221F2C                              ","SITE_NAME":"\u57ce\u5317\u5c0f\u533a\u5145\u7535\u7ad9","CELL_NAME":"\u57ce\u5317\u5c0f\u533a(DL)","ALERT_STATUS":"1","ALERT_STATE":"0"},{"ROWNUM":"8","ALERT_TIME":"2019-06-03 18:35:06","DEVICE_TYPE":"1","DEVICE_SN":"359369082684487","CELL_ID":"5101830007","SITE_ID":"5101830007CBD6221F2C                              ","SITE_NAME":"\u57ce\u5317\u5c0f\u533a\u5145\u7535\u7ad9","CELL_NAME":"\u57ce\u5317\u5c0f\u533a(DL)","ALERT_STATUS":"1","ALERT_STATE":"0"},{"ROWNUM":"9","ALERT_TIME":"2019-06-03 18:35:00","DEVICE_TYPE":"1","DEVICE_SN":"359369082944949","CELL_ID":"5101830007","SITE_ID":"5101830007CBD6221F2C                              ","SITE_NAME":"\u57ce\u5317\u5c0f\u533a\u5145\u7535\u7ad9","CELL_NAME":"\u57ce\u5317\u5c0f\u533a(DL)","ALERT_STATUS":"1","ALERT_STATE":"0"},{"ROWNUM":"10","ALERT_TIME":"2019-06-03 18:34:53","DEVICE_TYPE":"1","DEVICE_SN":"359369083195681","CELL_ID":"5101830007","SITE_ID":"5101830007CBD6221F2C                              ","SITE_NAME":"\u57ce\u5317\u5c0f\u533a\u5145\u7535\u7ad9","CELL_NAME":"\u57ce\u5317\u5c0f\u533a(DL)","ALERT_STATUS":"1","ALERT_STATE":"0"},{"ROWNUM":"11","ALERT_TIME":"2019-06-03 18:34:53","DEVICE_TYPE":"1","DEVICE_SN":"359369083200705","CELL_ID":"5101830007","SITE_ID":"5101830007CBD6221F2C                              ","SITE_NAME":"\u57ce\u5317\u5c0f\u533a\u5145\u7535\u7ad9","CELL_NAME":"\u57ce\u5317\u5c0f\u533a(DL)","ALERT_STATUS":"1","ALERT_STATE":"0"},{"ROWNUM":"12","ALERT_TIME":"2019-06-03 18:34:45","DEVICE_TYPE":"1","DEVICE_SN":"359369083128880","CELL_ID":"5101830007","SITE_ID":"5101830007CBD6221F2C                              ","SITE_NAME":"\u57ce\u5317\u5c0f\u533a\u5145\u7535\u7ad9","CELL_NAME":"\u57ce\u5317\u5c0f\u533a(DL)","ALERT_STATUS":"1","ALERT_STATE":"0"},{"ROWNUM":"13","ALERT_TIME":"2019-06-03 18:34:14","DEVICE_TYPE":"1","DEVICE_SN":"359369083115523","CELL_ID":"5101830007","SITE_ID":"5101830007CBD6221F2C                              ","SITE_NAME":"\u57ce\u5317\u5c0f\u533a\u5145\u7535\u7ad9","CELL_NAME":"\u57ce\u5317\u5c0f\u533a(DL)","ALERT_STATUS":"1","ALERT_STATE":"0"},{"ROWNUM":"14","ALERT_TIME":"2019-06-03 18:33:56","DEVICE_TYPE":"1","DEVICE_SN":"359369082913688","CELL_ID":"5101830007","SITE_ID":"5101830007CBD6221F2C                              ","SITE_NAME":"\u57ce\u5317\u5c0f\u533a\u5145\u7535\u7ad9","CELL_NAME":"\u57ce\u5317\u5c0f\u533a(DL)","ALERT_STATUS":"1","ALERT_STATE":"0"},{"ROWNUM":"15","ALERT_TIME":"2019-06-03 18:32:50","DEVICE_TYPE":"1","DEVICE_SN":"359369000048708","CELL_ID":"6101120002","SITE_ID":"6101120002A6C8F4F39A                              ","SITE_NAME":"\u5e7f\u4e30\u82b1\u56ed\uff08\u52a0\u76df\uff09\u5145\u7535\u7ad9","CELL_NAME":"\u5e7f\u4e30\u82b1\u56ed\uff08JM\uff09","ALERT_STATUS":"0","ALERT_STATE":"0"},{"ROWNUM":"16","ALERT_TIME":"2019-06-03 18:27:11","DEVICE_TYPE":"1","DEVICE_SN":"359369082920766","CELL_ID":"5101830007","SITE_ID":"5101830007CBD6221F2C                              ","SITE_NAME":"\u57ce\u5317\u5c0f\u533a\u5145\u7535\u7ad9","CELL_NAME":"\u57ce\u5317\u5c0f\u533a(DL)","ALERT_STATUS":"1","ALERT_STATE":"0"},{"ROWNUM":"17","ALERT_TIME":"2019-06-03 18:24:32","DEVICE_TYPE":"1","DEVICE_SN":"359369081981124","CELL_ID":"3405040001","SITE_ID":"34050400012464C510E5                              ","SITE_NAME":"\u94f6\u6cb3\u6e7e\u00b7\u57ce\u5e02\u8317\u82d1\u5145\u7535\u7ad9","CELL_NAME":"\u94f6\u6cb3\u6e7e\u00b7\u57ce\u5e02\u8317\u82d1","ALERT_STATUS":"1","ALERT_STATE":"0"},{"ROWNUM":"18","ALERT_TIME":"2019-06-03 18:24:22","DEVICE_TYPE":"1","DEVICE_SN":"359369083158515","CELL_ID":"5101830007","SITE_ID":"5101830007CBD6221F2C                              ","SITE_NAME":"\u57ce\u5317\u5c0f\u533a\u5145\u7535\u7ad9","CELL_NAME":"\u57ce\u5317\u5c0f\u533a(DL)","ALERT_STATUS":"1","ALERT_STATE":"0"},{"ROWNUM":"19","ALERT_TIME":"2019-06-03 18:24:17","DEVICE_TYPE":"1","DEVICE_SN":"359369082936648","CELL_ID":"5101830007","SITE_ID":"5101830007CBD6221F2C                              ","SITE_NAME":"\u57ce\u5317\u5c0f\u533a\u5145\u7535\u7ad9","CELL_NAME":"\u57ce\u5317\u5c0f\u533a(DL)","ALERT_STATUS":"1","ALERT_STATE":"0"},{"ROWNUM":"20","ALERT_TIME":"2019-06-03 18:24:16","DEVICE_TYPE":"1","DEVICE_SN":"359369082942737","CELL_ID":"5101830007","SITE_ID":"5101830007CBD6221F2C                              ","SITE_NAME":"\u57ce\u5317\u5c0f\u533a\u5145\u7535\u7ad9","CELL_NAME":"\u57ce\u5317\u5c0f\u533a(DL)","ALERT_STATUS":"1","ALERT_STATE":"0"}],"pageInfo":{"total":1693,"pageTotal":85,"currentPage":1,"nextPage":2,"size":20}}}
