{"debug":{"time":0.44,"peak":1.26,"query":3,"cache":0},"code":200,"data":{"data":[{"USER_ID":"100000056848","CHARGE_ORDER_ID":"CO201906031902548519f0d912f497c9","MOBILE_PHONE":"15109808351","CELL_ID":"4601050002","CARD_NO":"          ","CELL_NAME":"\u91d1\u534e\u82d1AB\u680b\uff08DL\uff09","CARPORT_NAME":"\u91d1\u534e\u82d1AB\u680b\u5c0f\u533a\u667a\u80fd\u8f66\u68da","CHARGING_PILE_NAME":"6","CHARGE_MINUTE":"6096:31:00","USER_PREDICT_MINUTE":"06:00:00","ELECTRICITY_METER_NAME":"\u91d1\u534e\u82d1AB\u680b1\u53f7\u7535\u8868","CHARGING_PILE_SN":"359369082027778","PORT_ID":"2","CHARGE_START_TIME":"2019-06-03 19:02:54","ORDER_TYPE":"4","CHARGE_STATE":"1","AREA":"\u6d77\u5357\u7701\u6d77\u53e3\u5e02\u79c0\u82f1\u533a","AVG_ELECTRICITY":"0","CHARGE_STATE_DESC":"\u5145\u7535","ORDER_TYPE_DESC":"\u65f6\u957f\u5145"},{"USER_ID":"100000044557","CHARGE_ORDER_ID":"CO20190603190251a4a63c9985849c8b","MOBILE_PHONE":"13034919262","CELL_ID":"4601050002","CARD_NO":"          ","CELL_NAME":"\u91d1\u534e\u82d1AB\u680b\uff08DL\uff09","CARPORT_NAME":"\u91d1\u534e\u82d1AB\u680b\u5c0f\u533a\u667a\u80fd\u8f66\u68da","CHARGING_PILE_NAME":"23","CHARGE_MINUTE":"6096:31:00","USER_PREDICT_MINUTE":null,"ELECTRICITY_METER_NAME":"\u91d1\u534e\u82d1AB\u680b1\u53f7\u7535\u8868","CHARGING_PILE_SN":"359369082213196","PORT_ID":"1","CHARGE_START_TIME":"2019-06-03 19:02:51","ORDER_TYPE":"1","CHARGE_STATE":"1","AREA":"\u6d77\u5357\u7701\u6d77\u53e3\u5e02\u79c0\u82f1\u533a","AVG_ELECTRICITY":"0","CHARGE_STATE_DESC":"\u5145\u7535","ORDER_TYPE_DESC":"\u667a\u80fd\u5145"},{"USER_ID":"100000063442","CHARGE_ORDER_ID":"CO201906031902463a61da841d940f6b","MOBILE_PHONE":"19859119003","CELL_ID":"3501110002","CARD_NO":"          ","CELL_NAME":"\u4fdd\u5229\u9999\u69df","CARPORT_NAME":"\u4fdd\u5229\u9999\u69df\u5c0f\u533a\u667a\u80fd\u8f66\u68da","CHARGING_PILE_NAME":"104272","CHARGE_MINUTE":"6096:31:00","USER_PREDICT_MINUTE":"04:00:00","ELECTRICITY_METER_NAME":"\u4fdd\u5229\u9999\u69df39\u53f7\u697c2\u53f7\u7535\u8868","CHARGING_PILE_SN":"359369082594116","PORT_ID":"2","CHARGE_START_TIME":"2019-06-03 19:02:46","ORDER_TYPE":"4","CHARGE_STATE":"1","AREA":"\u798f\u5efa\u7701\u798f\u5dde\u5e02\u664b\u5b89\u533a","AVG_ELECTRICITY":"0","CHARGE_STATE_DESC":"\u5145\u7535","ORDER_TYPE_DESC":"\u65f6\u957f\u5145"},{"USER_ID":"100000050500","CHARGE_ORDER_ID":"CO2019060318555457c5c0b6df14e7a9","MOBILE_PHONE":"15806075882","CELL_ID":"3501110002","CARD_NO":"          ","CELL_NAME":"\u4fdd\u5229\u9999\u69df","CARPORT_NAME":"\u4fdd\u5229\u9999\u69df\u5c0f\u533a\u667a\u80fd\u8f66\u68da","CHARGING_PILE_NAME":"104128","CHARGE_MINUTE":"6096:38:00","USER_PREDICT_MINUTE":"06:00:00","ELECTRICITY_METER_NAME":"\u4fdd\u5229\u9999\u69df39\u53f7\u697c2\u53f7\u7535\u8868","CHARGING_PILE_SN":"359369082732898","PORT_ID":"1","CHARGE_START_TIME":"2019-06-03 18:55:54","ORDER_TYPE":"4","CHARGE_STATE":"1","AREA":"\u798f\u5efa\u7701\u798f\u5dde\u5e02\u664b\u5b89\u533a","AVG_ELECTRICITY":"1454","CHARGE_STATE_DESC":"\u5145\u7535","ORDER_TYPE_DESC":"\u65f6\u957f\u5145"},{"USER_ID":"100000046314","CHARGE_ORDER_ID":"CO2019060318554023d79be21da41ab9","MOBILE_PHONE":"18976077185","CELL_ID":"4601050002","CARD_NO":"          ","CELL_NAME":"\u91d1\u534e\u82d1AB\u680b\uff08DL\uff09","CARPORT_NAME":"\u91d1\u534e\u82d1AB\u680b\u5c0f\u533a\u667a\u80fd\u8f66\u68da","CHARGING_PILE_NAME":"15","CHARGE_MINUTE":"6096:38:00","USER_PREDICT_MINUTE":"08:00:00","ELECTRICITY_METER_NAME":"\u91d1\u534e\u82d1AB\u680b1\u53f7\u7535\u8868","CHARGING_PILE_SN":"359369082031820","PORT_ID":"1","CHARGE_START_TIME":"2019-06-03 18:55:40","ORDER_TYPE":"4","CHARGE_STATE":"1","AREA":"\u6d77\u5357\u7701\u6d77\u53e3\u5e02\u79c0\u82f1\u533a","AVG_ELECTRICITY":"1139","CHARGE_STATE_DESC":"\u5145\u7535","ORDER_TYPE_DESC":"\u65f6\u957f\u5145"},{"USER_ID":"100000053999","CHARGE_ORDER_ID":"CO201906031855131132e0f1b754e5f9","MOBILE_PHONE":"13590120228","CELL_ID":"4403030008","CARD_NO":"          ","CELL_NAME":"\u4e2d\u4fe1\u661f\u5149\u540d\u5ead","CARPORT_NAME":"\u91d1\u5149\u534e","CHARGING_PILE_NAME":"109185","CHARGE_MINUTE":"6096:38:00","USER_PREDICT_MINUTE":"04:00:00","ELECTRICITY_METER_NAME":"\u4e2d\u4fe1\u661f\u5149\u540d\u5ead1\u53f7\u7535\u8868","CHARGING_PILE_SN":"359369082559432","PORT_ID":"2","CHARGE_START_TIME":"2019-06-03 18:55:13","ORDER_TYPE":"4","CHARGE_STATE":"1","AREA":"\u5e7f\u4e1c\u7701\u6df1\u5733\u5e02\u7f57\u6e56\u533a","AVG_ELECTRICITY":"688","CHARGE_STATE_DESC":"\u5145\u7535","ORDER_TYPE_DESC":"\u65f6\u957f\u5145"},{"USER_ID":"100000050552","CHARGE_ORDER_ID":"CO201906031853195899225ce404b83a","MOBILE_PHONE":"18750164135","CELL_ID":"3501110002","CARD_NO":"          ","CELL_NAME":"\u4fdd\u5229\u9999\u69df","CARPORT_NAME":"\u4fdd\u5229\u9999\u69df\u5c0f\u533a\u667a\u80fd\u8f66\u68da","CHARGING_PILE_NAME":"104042","CHARGE_MINUTE":"6096:40:00","USER_PREDICT_MINUTE":"05:00:00","ELECTRICITY_METER_NAME":"\u4fdd\u5229\u9999\u69df45\u53f7\u697c1\u53f7\u7535\u8868","CHARGING_PILE_SN":"359369082626199","PORT_ID":"2","CHARGE_START_TIME":"2019-06-03 18:53:19","ORDER_TYPE":"4","CHARGE_STATE":"1","AREA":"\u798f\u5efa\u7701\u798f\u5dde\u5e02\u664b\u5b89\u533a","AVG_ELECTRICITY":"1327","CHARGE_STATE_DESC":"\u5145\u7535","ORDER_TYPE_DESC":"\u65f6\u957f\u5145"},{"USER_ID":"100000042353","CHARGE_ORDER_ID":"CO20190603185217ebe41077b4f4b3eb","MOBILE_PHONE":"13950495090","CELL_ID":"3501110002","CARD_NO":"          ","CELL_NAME":"\u4fdd\u5229\u9999\u69df","CARPORT_NAME":"\u4fdd\u5229\u9999\u69df\u5c0f\u533a\u667a\u80fd\u8f66\u68da","CHARGING_PILE_NAME":"104117","CHARGE_MINUTE":"6096:41:00","USER_PREDICT_MINUTE":"04:00:00","ELECTRICITY_METER_NAME":"\u4fdd\u5229\u9999\u69df39\u53f7\u697c2\u53f7\u7535\u8868","CHARGING_PILE_SN":"359369082592540","PORT_ID":"2","CHARGE_START_TIME":"2019-06-03 18:52:17","ORDER_TYPE":"4","CHARGE_STATE":"1","AREA":"\u798f\u5efa\u7701\u798f\u5dde\u5e02\u664b\u5b89\u533a","AVG_ELECTRICITY":"1673","CHARGE_STATE_DESC":"\u5145\u7535","ORDER_TYPE_DESC":"\u65f6\u957f\u5145"},{"USER_ID":"100000063298","CHARGE_ORDER_ID":"CO2019060318502639859d9086341c7a","MOBILE_PHONE":"18259169625","CELL_ID":"3501110002","CARD_NO":"          ","CELL_NAME":"\u4fdd\u5229\u9999\u69df","CARPORT_NAME":"\u4fdd\u5229\u9999\u69df\u5c0f\u533a\u667a\u80fd\u8f66\u68da","CHARGING_PILE_NAME":"201146","CHARGE_MINUTE":"6096:43:00","USER_PREDICT_MINUTE":"08:00:00","ELECTRICITY_METER_NAME":"\u4fdd\u5229\u9999\u69df44\u53f7\u697c3\u53f7\u7535\u8868","CHARGING_PILE_SN":"359369083194189","PORT_ID":"1","CHARGE_START_TIME":"2019-06-03 18:50:26","ORDER_TYPE":"4","CHARGE_STATE":"1","AREA":"\u798f\u5efa\u7701\u798f\u5dde\u5e02\u664b\u5b89\u533a","AVG_ELECTRICITY":"847","CHARGE_STATE_DESC":"\u5145\u7535","ORDER_TYPE_DESC":"\u65f6\u957f\u5145"},{"USER_ID":"100000089916","CHARGE_ORDER_ID":"CO201906031848108b94bf93aa241c38","MOBILE_PHONE":"           ","CELL_ID":"3501110002","CARD_NO":"          ","CELL_NAME":"\u4fdd\u5229\u9999\u69df","CARPORT_NAME":"\u4fdd\u5229\u9999\u69df\u5c0f\u533a\u667a\u80fd\u8f66\u68da","CHARGING_PILE_NAME":"103848","CHARGE_MINUTE":"6096:45:00","USER_PREDICT_MINUTE":"05:00:00","ELECTRICITY_METER_NAME":"\u4fdd\u5229\u9999\u69df39\u53f7\u697c2\u53f7\u7535\u8868","CHARGING_PILE_SN":"359369082675089","PORT_ID":"2","CHARGE_START_TIME":"2019-06-03 18:48:10","ORDER_TYPE":"4","CHARGE_STATE":"1","AREA":"\u798f\u5efa\u7701\u798f\u5dde\u5e02\u664b\u5b89\u533a","AVG_ELECTRICITY":"1246","CHARGE_STATE_DESC":"\u5145\u7535","ORDER_TYPE_DESC":"\u65f6\u957f\u5145"},{"USER_ID":"100000093975","CHARGE_ORDER_ID":"CO20190603184729e4971cad5594ea99","MOBILE_PHONE":"           ","CELL_ID":"1404020003","CARD_NO":"          ","CELL_NAME":"\u6ee8\u6cb3\u57ce\u4e0a\u57ce\u4e1c\u5c0f\u9662\uff08JM\uff09","CARPORT_NAME":"\u6ee8\u6cb3\u57ce\u4e0a\u57ce\u4e1c\u5c0f\u9662","CHARGING_PILE_NAME":"\u6ee8\u6cb3\u57ce\u4e0a\u57ce202840","CHARGE_MINUTE":"6096:46:00","USER_PREDICT_MINUTE":"03:00:00","ELECTRICITY_METER_NAME":"\u6ee8\u6cb3\u57ce\u4e0a\u57ce\u4e1c\u5c0f\u9662\uff08\u52a0\u76df\uff091\u53f7\u7535\u8868","CHARGING_PILE_SN":"359369083146999","PORT_ID":"1","CHARGE_START_TIME":"2019-06-03 18:47:29","ORDER_TYPE":"4","CHARGE_STATE":"1","AREA":"\u5c71\u897f\u7701\u957f\u6cbb\u5e02\u57ce\u533a","AVG_ELECTRICITY":"781","CHARGE_STATE_DESC":"\u5145\u7535","ORDER_TYPE_DESC":"\u65f6\u957f\u5145"},{"USER_ID":"100000049108","CHARGE_ORDER_ID":"CO20190603184551671f3003b2b4cacb","MOBILE_PHONE":"18950472712","CELL_ID":"3501110002","CARD_NO":"          ","CELL_NAME":"\u4fdd\u5229\u9999\u69df","CARPORT_NAME":"\u4fdd\u5229\u9999\u69df\u5c0f\u533a\u667a\u80fd\u8f66\u68da","CHARGING_PILE_NAME":"104130","CHARGE_MINUTE":"6096:48:00","USER_PREDICT_MINUTE":"08:00:00","ELECTRICITY_METER_NAME":"\u4fdd\u5229\u9999\u69df39\u53f7\u697c2\u53f7\u7535\u8868","CHARGING_PILE_SN":"359369082626009","PORT_ID":"1","CHARGE_START_TIME":"2019-06-03 18:45:51","ORDER_TYPE":"4","CHARGE_STATE":"1","AREA":"\u798f\u5efa\u7701\u798f\u5dde\u5e02\u664b\u5b89\u533a","AVG_ELECTRICITY":"1601","CHARGE_STATE_DESC":"\u5145\u7535","ORDER_TYPE_DESC":"\u65f6\u957f\u5145"},{"USER_ID":"100000045381","CHARGE_ORDER_ID":"CO2019060318431698a8da744b04d349","MOBILE_PHONE":"18789242551","CELL_ID":"4601050002","CARD_NO":"          ","CELL_NAME":"\u91d1\u534e\u82d1AB\u680b\uff08DL\uff09","CARPORT_NAME":"\u91d1\u534e\u82d1AB\u680b\u5c0f\u533a\u667a\u80fd\u8f66\u68da","CHARGING_PILE_NAME":"10","CHARGE_MINUTE":"6096:50:00","USER_PREDICT_MINUTE":"06:00:00","ELECTRICITY_METER_NAME":"\u91d1\u534e\u82d1AB\u680b1\u53f7\u7535\u8868","CHARGING_PILE_SN":"359369082031044","PORT_ID":"2","CHARGE_START_TIME":"2019-06-03 18:43:16","ORDER_TYPE":"4","CHARGE_STATE":"1","AREA":"\u6d77\u5357\u7701\u6d77\u53e3\u5e02\u79c0\u82f1\u533a","AVG_ELECTRICITY":"958","CHARGE_STATE_DESC":"\u5145\u7535","ORDER_TYPE_DESC":"\u65f6\u957f\u5145"},{"USER_ID":"100000046451","CHARGE_ORDER_ID":"CO20190603184232a26eaa2b27c41559","MOBILE_PHONE":"13118913936","CELL_ID":"4601050002","CARD_NO":"          ","CELL_NAME":"\u91d1\u534e\u82d1AB\u680b\uff08DL\uff09","CARPORT_NAME":"\u91d1\u534e\u82d1AB\u680b\u5c0f\u533a\u667a\u80fd\u8f66\u68da","CHARGING_PILE_NAME":"27","CHARGE_MINUTE":"6096:51:00","USER_PREDICT_MINUTE":null,"ELECTRICITY_METER_NAME":"\u91d1\u534e\u82d1AB\u680b1\u53f7\u7535\u8868","CHARGING_PILE_SN":"359369082026010","PORT_ID":"1","CHARGE_START_TIME":"2019-06-03 18:42:32","ORDER_TYPE":"1","CHARGE_STATE":"1","AREA":"\u6d77\u5357\u7701\u6d77\u53e3\u5e02\u79c0\u82f1\u533a","AVG_ELECTRICITY":"1245","CHARGE_STATE_DESC":"\u5145\u7535","ORDER_TYPE_DESC":"\u667a\u80fd\u5145"},{"USER_ID":"100000048642","CHARGE_ORDER_ID":"CO201906031842275c05c8ed7d74c379","MOBILE_PHONE":"13976963219","CELL_ID":"4601050002","CARD_NO":"          ","CELL_NAME":"\u91d1\u534e\u82d1AB\u680b\uff08DL\uff09","CARPORT_NAME":"\u91d1\u534e\u82d1AB\u680b\u5c0f\u533a\u667a\u80fd\u8f66\u68da","CHARGING_PILE_NAME":"25","CHARGE_MINUTE":"6096:51:00","USER_PREDICT_MINUTE":"06:00:00","ELECTRICITY_METER_NAME":"\u91d1\u534e\u82d1AB\u680b1\u53f7\u7535\u8868","CHARGING_PILE_SN":"359369082028594","PORT_ID":"2","CHARGE_START_TIME":"2019-06-03 18:42:27","ORDER_TYPE":"4","CHARGE_STATE":"1","AREA":"\u6d77\u5357\u7701\u6d77\u53e3\u5e02\u79c0\u82f1\u533a","AVG_ELECTRICITY":"1159","CHARGE_STATE_DESC":"\u5145\u7535","ORDER_TYPE_DESC":"\u65f6\u957f\u5145"},{"USER_ID":"100000090529","CHARGE_ORDER_ID":"CO20190603184111043c711e9b44bd89","MOBILE_PHONE":"13133025215","CELL_ID":"1401070001","CARD_NO":"          ","CELL_NAME":null,"CARPORT_NAME":"\u592a\u77ff\u80b2\u624d\u82d1\uff08JM\uff09\u5c0f\u533a\u667a\u80fd\u8f66\u68da1","CHARGING_PILE_NAME":"\u592a\u77ff\u80b2\u624d\u82d12\u697c\u53f7\u697c\u8f66\u68da204648","CHARGE_MINUTE":"6096:52:00","USER_PREDICT_MINUTE":"02:00:00","ELECTRICITY_METER_NAME":"\u592a\u77ff\u80b2\u624d\u82d1\uff08\u52a0\u76df\uff093\u53f7\u7535\u8868","CHARGING_PILE_SN":"359369083201349","PORT_ID":"2","CHARGE_START_TIME":"2019-06-03 18:41:11","ORDER_TYPE":"4","CHARGE_STATE":"1","AREA":null,"AVG_ELECTRICITY":"804","CHARGE_STATE_DESC":"\u5145\u7535","ORDER_TYPE_DESC":"\u65f6\u957f\u5145"},{"USER_ID":"100000090529","CHARGE_ORDER_ID":"CO20190603184111043c711e9b44bd89","MOBILE_PHONE":"13133025215","CELL_ID":"1401070001","CARD_NO":"          ","CELL_NAME":null,"CARPORT_NAME":"\u592a\u77ff\u80b2\u624d\u82d1\uff08\u52a0\u76df\uff09\u5c0f\u533a\u667a\u80fd\u8f66\u68da","CHARGING_PILE_NAME":"\u592a\u77ff\u80b2\u624d\u82d12\u697c\u53f7\u697c\u8f66\u68da204648","CHARGE_MINUTE":"6096:52:00","USER_PREDICT_MINUTE":"02:00:00","ELECTRICITY_METER_NAME":"\u592a\u77ff\u80b2\u624d\u82d1\uff08\u52a0\u76df\uff093\u53f7\u7535\u8868","CHARGING_PILE_SN":"359369083201349","PORT_ID":"2","CHARGE_START_TIME":"2019-06-03 18:41:11","ORDER_TYPE":"4","CHARGE_STATE":"1","AREA":null,"AVG_ELECTRICITY":"804","CHARGE_STATE_DESC":"\u5145\u7535","ORDER_TYPE_DESC":"\u65f6\u957f\u5145"},{"USER_ID":"100000052307","CHARGE_ORDER_ID":"CO201906031838167b43c71edd944989","MOBILE_PHONE":"18344915135","CELL_ID":"3501110002","CARD_NO":"          ","CELL_NAME":"\u4fdd\u5229\u9999\u69df","CARPORT_NAME":"\u4fdd\u5229\u9999\u69df\u5c0f\u533a\u667a\u80fd\u8f66\u68da","CHARGING_PILE_NAME":"104140","CHARGE_MINUTE":"6096:55:00","USER_PREDICT_MINUTE":"07:00:00","ELECTRICITY_METER_NAME":"\u4fdd\u5229\u9999\u69df39\u53f7\u697c2\u53f7\u7535\u8868","CHARGING_PILE_SN":"359369082669199","PORT_ID":"1","CHARGE_START_TIME":"2019-06-03 18:38:16","ORDER_TYPE":"4","CHARGE_STATE":"1","AREA":"\u798f\u5efa\u7701\u798f\u5dde\u5e02\u664b\u5b89\u533a","AVG_ELECTRICITY":"1231","CHARGE_STATE_DESC":"\u5145\u7535","ORDER_TYPE_DESC":"\u65f6\u957f\u5145"},{"USER_ID":"100000037302","CHARGE_ORDER_ID":"CO20190603183815aa956c16b614f4a8","MOBILE_PHONE":"13960727689","CELL_ID":"3501110002","CARD_NO":"          ","CELL_NAME":"\u4fdd\u5229\u9999\u69df","CARPORT_NAME":"\u4fdd\u5229\u9999\u69df\u5c0f\u533a\u667a\u80fd\u8f66\u68da","CHARGING_PILE_NAME":"104155","CHARGE_MINUTE":"6096:55:00","USER_PREDICT_MINUTE":"06:00:00","ELECTRICITY_METER_NAME":"\u4fdd\u5229\u9999\u69df39\u53f7\u697c2\u53f7\u7535\u8868","CHARGING_PILE_SN":"359369082593639","PORT_ID":"1","CHARGE_START_TIME":"2019-06-03 18:38:15","ORDER_TYPE":"4","CHARGE_STATE":"1","AREA":"\u798f\u5efa\u7701\u798f\u5dde\u5e02\u664b\u5b89\u533a","AVG_ELECTRICITY":"1473","CHARGE_STATE_DESC":"\u5145\u7535","ORDER_TYPE_DESC":"\u65f6\u957f\u5145"},{"USER_ID":"100000049033","CHARGE_ORDER_ID":"CO20190603183607ccf9cffa60f45c68","MOBILE_PHONE":"13655034615","CELL_ID":"3501110002","CARD_NO":"          ","CELL_NAME":"\u4fdd\u5229\u9999\u69df","CARPORT_NAME":"\u4fdd\u5229\u9999\u69df\u5c0f\u533a\u667a\u80fd\u8f66\u68da","CHARGING_PILE_NAME":"104035","CHARGE_MINUTE":"6096:57:00","USER_PREDICT_MINUTE":null,"ELECTRICITY_METER_NAME":"\u4fdd\u5229\u9999\u69df45\u53f7\u697c1\u53f7\u7535\u8868","CHARGING_PILE_SN":"359369082715596","PORT_ID":"2","CHARGE_START_TIME":"2019-06-03 18:36:07","ORDER_TYPE":"1","CHARGE_STATE":"1","AREA":"\u798f\u5efa\u7701\u798f\u5dde\u5e02\u664b\u5b89\u533a","AVG_ELECTRICITY":"1159","CHARGE_STATE_DESC":"\u5145\u7535","ORDER_TYPE_DESC":"\u667a\u80fd\u5145"}],"pageInfo":{"total":98,"pageTotal":5,"currentPage":1,"nextPage":2,"size":20}}} 